n°;valid;K_sk;K_sk:a_ini_sk;K_sk:sk_act1;K_sk:a_ini_sk:sk_act1;K_a;K_a:b_ini;K_a:en_ini;K_a:sk_act2;K_a:b_ini:en_ini;K_a:en_ini:sk_act2;K_a:b_ini:sk_act2;K_a:b_ini:en_ini:sk_act2;K_b;K_b:a_act;K_b:m;K_b:a_act:m;K_ep;K_ep:b_act;K_en;K_en:a_ini_en;K_en:ep_act;K_en:sk_ini;K_en:a_ini_en:ep_act;K_en:ep_act:sk_ini;K_en:a_ini_en:sk_ini;K_en:a_ini_en:ep_act:sk_ini;Error explanation
1;OK;0;1;0;2;0;0;0;0;0;0;0;1;0;0;0;1;0;1;0;0;0;0;0;0;0;1;
2;OK;0;1;0;2;0;0;0;0;1;0;0;1;0;0;0;1;0;1;0;0;0;0;0;0;0;1;
3;OK;0;1;0;2;0;0;0;0;0;1;0;1;0;0;0;1;0;1;0;0;0;0;0;0;0;1;
4;OK;0;1;0;2;0;0;0;0;1;1;0;1;0;0;0;1;0;1;0;0;0;0;0;0;0;1;
5;OK;0;1;0;2;0;0;0;0;0;0;1;1;0;0;0;1;0;1;0;0;0;0;0;0;0;1;
6;OK;0;1;0;2;0;0;0;0;1;0;1;1;0;0;0;1;0;1;0;0;0;0;0;0;0;1;
7;OK;0;1;0;2;0;1;0;0;1;0;1;1;0;0;0;1;0;1;0;0;0;0;0;0;0;1;
8;OK;0;1;0;2;0;0;0;0;0;1;1;1;0;0;0;1;0;1;0;0;0;0;0;0;0;1;
9;OK;0;1;0;2;0;0;0;1;0;1;1;1;0;0;0;1;0;1;0;0;0;0;0;0;0;1;
10;OK;0;1;0;2;0;0;0;0;1;1;1;1;0;0;0;1;0;1;0;0;0;0;0;0;0;1;
11;OK;0;1;0;2;0;1;0;0;1;1;1;1;0;0;0;1;0;1;0;0;0;0;0;0;0;1;
12;OK;0;1;0;2;0;0;0;1;1;1;1;1;0;0;0;1;0;1;0;0;0;0;0;0;0;1;
13;OK;0;1;0;2;0;1;0;1;1;1;1;1;0;0;0;1;0;1;0;0;0;0;0;0;0;1;
14;OK;0;1;0;2;0;0;0;0;0;0;0;1;0;1;0;1;0;1;0;0;0;0;0;0;0;1;
15;OK;0;1;0;2;0;0;0;0;1;0;0;1;0;1;0;1;0;1;0;0;0;0;0;0;0;1;
16;OK;0;1;0;2;0;0;0;0;0;1;0;1;0;1;0;1;0;1;0;0;0;0;0;0;0;1;
17;OK;0;1;0;2;0;0;0;0;1;1;0;1;0;1;0;1;0;1;0;0;0;0;0;0;0;1;
18;OK;0;1;0;2;0;0;0;0;0;0;1;1;0;1;0;1;0;1;0;0;0;0;0;0;0;1;
19;OK;0;1;0;2;0;0;0;0;1;0;1;1;0;1;0;1;0;1;0;0;0;0;0;0;0;1;
20;OK;0;1;0;2;0;1;0;0;1;0;1;1;0;1;0;1;0;1;0;0;0;0;0;0;0;1;
21;OK;0;1;0;2;0;0;0;0;0;1;1;1;0;1;0;1;0;1;0;0;0;0;0;0;0;1;
22;OK;0;1;0;2;0;0;0;1;0;1;1;1;0;1;0;1;0;1;0;0;0;0;0;0;0;1;
23;OK;0;1;0;2;0;0;0;0;1;1;1;1;0;1;0;1;0;1;0;0;0;0;0;0;0;1;
24;OK;0;1;0;2;0;1;0;0;1;1;1;1;0;1;0;1;0;1;0;0;0;0;0;0;0;1;
25;OK;0;1;0;2;0;0;0;1;1;1;1;1;0;1;0;1;0;1;0;0;0;0;0;0;0;1;
26;OK;0;1;0;2;0;1;0;1;1;1;1;1;0;1;0;1;0;1;0;0;0;0;0;0;0;1;
27;OK;0;1;0;2;0;0;0;0;0;1;0;1;0;0;1;1;0;1;0;0;0;0;0;0;0;1;
28;OK;0;1;0;2;0;0;0;0;1;1;0;1;0;0;1;1;0;1;0;0;0;0;0;0;0;1;
29;OK;0;1;0;2;0;0;0;0;0;1;1;1;0;0;1;1;0;1;0;0;0;0;0;0;0;1;
30;OK;0;1;0;2;0;0;0;1;0;1;1;1;0;0;1;1;0;1;0;0;0;0;0;0;0;1;
31;OK;0;1;0;2;0;0;0;0;1;1;1;1;0;0;1;1;0;1;0;0;0;0;0;0;0;1;
32;OK;0;1;0;2;0;1;0;0;1;1;1;1;0;0;1;1;0;1;0;0;0;0;0;0;0;1;
33;OK;0;1;0;2;0;0;0;1;1;1;1;1;0;0;1;1;0;1;0;0;0;0;0;0;0;1;
34;OK;0;1;0;2;0;1;0;1;1;1;1;1;0;0;1;1;0;1;0;0;0;0;0;0;0;1;
35;OK;0;1;0;2;0;0;0;0;0;1;0;1;0;1;1;1;0;1;0;0;0;0;0;0;0;1;
36;OK;0;1;0;2;0;0;0;0;1;1;0;1;0;1;1;1;0;1;0;0;0;0;0;0;0;1;
37;OK;0;1;0;2;0;0;0;0;0;1;1;1;0;1;1;1;0;1;0;0;0;0;0;0;0;1;
38;OK;0;1;0;2;0;0;0;1;0;1;1;1;0;1;1;1;0;1;0;0;0;0;0;0;0;1;
39;OK;0;1;0;2;0;0;0;0;1;1;1;1;0;1;1;1;0;1;0;0;0;0;0;0;0;1;
40;OK;0;1;0;2;0;1;0;0;1;1;1;1;0;1;1;1;0;1;0;0;0;0;0;0;0;1;
41;OK;0;1;0;2;0;0;0;1;1;1;1;1;0;1;1;1;0;1;0;0;0;0;0;0;0;1;
42;OK;0;1;0;2;0;1;0;1;1;1;1;1;0;1;1;1;0;1;0;0;0;0;0;0;0;1;
43;OK;0;1;0;2;0;0;0;0;0;0;0;1;0;0;0;1;0;1;0;0;0;0;1;0;0;1;
44;OK;0;1;0;2;0;0;0;0;1;0;0;1;0;0;0;1;0;1;0;0;0;0;1;0;0;1;
45;OK;0;1;0;2;0;0;0;0;0;1;0;1;0;0;0;1;0;1;0;0;0;0;1;0;0;1;
46;OK;0;1;0;2;0;0;0;0;1;1;0;1;0;0;0;1;0;1;0;0;0;0;1;0;0;1;
47;OK;0;1;0;2;0;0;0;0;0;0;1;1;0;0;0;1;0;1;0;0;0;0;1;0;0;1;
48;OK;0;1;0;2;0;0;0;0;1;0;1;1;0;0;0;1;0;1;0;0;0;0;1;0;0;1;
49;OK;0;1;0;2;0;1;0;0;1;0;1;1;0;0;0;1;0;1;0;0;0;0;1;0;0;1;
50;OK;0;1;0;2;0;0;0;0;0;1;1;1;0;0;0;1;0;1;0;0;0;0;1;0;0;1;
51;OK;0;1;0;2;0;0;0;1;0;1;1;1;0;0;0;1;0;1;0;0;0;0;1;0;0;1;
52;OK;0;1;0;2;0;0;0;0;1;1;1;1;0;0;0;1;0;1;0;0;0;0;1;0;0;1;
53;OK;0;1;0;2;0;1;0;0;1;1;1;1;0;0;0;1;0;1;0;0;0;0;1;0;0;1;
54;OK;0;1;0;2;0;0;0;1;1;1;1;1;0;0;0;1;0;1;0;0;0;0;1;0;0;1;
55;OK;0;1;0;2;0;1;0;1;1;1;1;1;0;0;0;1;0;1;0;0;0;0;1;0;0;1;
56;OK;0;1;0;2;0;0;0;0;0;0;0;1;0;1;0;1;0;1;0;0;0;0;1;0;0;1;
57;OK;0;1;0;2;0;0;0;0;1;0;0;1;0;1;0;1;0;1;0;0;0;0;1;0;0;1;
58;OK;0;1;0;2;0;0;0;0;0;1;0;1;0;1;0;1;0;1;0;0;0;0;1;0;0;1;
59;OK;0;1;0;2;0;0;0;0;1;1;0;1;0;1;0;1;0;1;0;0;0;0;1;0;0;1;
60;OK;0;1;0;2;0;0;0;0;0;0;1;1;0;1;0;1;0;1;0;0;0;0;1;0;0;1;
61;OK;0;1;0;2;0;0;0;0;1;0;1;1;0;1;0;1;0;1;0;0;0;0;1;0;0;1;
62;OK;0;1;0;2;0;1;0;0;1;0;1;1;0;1;0;1;0;1;0;0;0;0;1;0;0;1;
63;OK;0;1;0;2;0;0;0;0;0;1;1;1;0;1;0;1;0;1;0;0;0;0;1;0;0;1;
64;OK;0;1;0;2;0;0;0;1;0;1;1;1;0;1;0;1;0;1;0;0;0;0;1;0;0;1;
65;OK;0;1;0;2;0;0;0;0;1;1;1;1;0;1;0;1;0;1;0;0;0;0;1;0;0;1;
66;OK;0;1;0;2;0;1;0;0;1;1;1;1;0;1;0;1;0;1;0;0;0;0;1;0;0;1;
67;OK;0;1;0;2;0;0;0;1;1;1;1;1;0;1;0;1;0;1;0;0;0;0;1;0;0;1;
68;OK;0;1;0;2;0;1;0;1;1;1;1;1;0;1;0;1;0;1;0;0;0;0;1;0;0;1;
69;OK;0;1;0;2;0;0;0;0;0;0;0;1;0;0;1;1;0;1;0;0;0;0;1;0;0;1;
70;OK;0;1;0;2;0;0;0;0;1;0;0;1;0;0;1;1;0;1;0;0;0;0;1;0;0;1;
71;OK;0;1;0;2;0;0;0;0;0;1;0;1;0;0;1;1;0;1;0;0;0;0;1;0;0;1;
72;OK;0;1;0;2;0;0;0;0;1;1;0;1;0;0;1;1;0;1;0;0;0;0;1;0;0;1;
73;OK;0;1;0;2;0;0;0;0;0;0;1;1;0;0;1;1;0;1;0;0;0;0;1;0;0;1;
74;OK;0;1;0;2;0;0;0;0;1;0;1;1;0;0;1;1;0;1;0;0;0;0;1;0;0;1;
75;OK;0;1;0;2;0;1;0;0;1;0;1;1;0;0;1;1;0;1;0;0;0;0;1;0;0;1;
76;OK;0;1;0;2;0;0;0;0;0;1;1;1;0;0;1;1;0;1;0;0;0;0;1;0;0;1;
77;OK;0;1;0;2;0;0;0;1;0;1;1;1;0;0;1;1;0;1;0;0;0;0;1;0;0;1;
78;OK;0;1;0;2;0;0;0;0;1;1;1;1;0;0;1;1;0;1;0;0;0;0;1;0;0;1;
79;OK;0;1;0;2;0;1;0;0;1;1;1;1;0;0;1;1;0;1;0;0;0;0;1;0;0;1;
80;OK;0;1;0;2;0;0;0;1;1;1;1;1;0;0;1;1;0;1;0;0;0;0;1;0;0;1;
81;OK;0;1;0;2;0;1;0;1;1;1;1;1;0;0;1;1;0;1;0;0;0;0;1;0;0;1;
82;OK;0;1;0;2;0;0;0;0;0;0;0;1;0;1;1;1;0;1;0;0;0;0;1;0;0;1;
83;OK;0;1;0;2;0;0;0;0;1;0;0;1;0;1;1;1;0;1;0;0;0;0;1;0;0;1;
84;OK;0;1;0;2;0;0;0;0;0;1;0;1;0;1;1;1;0;1;0;0;0;0;1;0;0;1;
85;OK;0;1;0;2;0;0;0;0;1;1;0;1;0;1;1;1;0;1;0;0;0;0;1;0;0;1;
86;OK;0;1;0;2;0;0;0;0;0;0;1;1;0;1;1;1;0;1;0;0;0;0;1;0;0;1;
87;OK;0;1;0;2;0;0;0;0;1;0;1;1;0;1;1;1;0;1;0;0;0;0;1;0;0;1;
88;OK;0;1;0;2;0;1;0;0;1;0;1;1;0;1;1;1;0;1;0;0;0;0;1;0;0;1;
89;OK;0;1;0;2;0;0;0;0;0;1;1;1;0;1;1;1;0;1;0;0;0;0;1;0;0;1;
90;OK;0;1;0;2;0;0;0;1;0;1;1;1;0;1;1;1;0;1;0;0;0;0;1;0;0;1;
91;OK;0;1;0;2;0;0;0;0;1;1;1;1;0;1;1;1;0;1;0;0;0;0;1;0;0;1;
92;OK;0;1;0;2;0;1;0;0;1;1;1;1;0;1;1;1;0;1;0;0;0;0;1;0;0;1;
93;OK;0;1;0;2;0;0;0;1;1;1;1;1;0;1;1;1;0;1;0;0;0;0;1;0;0;1;
94;OK;0;1;0;2;0;1;0;1;1;1;1;1;0;1;1;1;0;1;0;0;0;0;1;0;0;1;
95;OK;0;1;0;2;0;0;0;0;0;0;0;1;0;0;0;1;0;1;0;0;0;0;0;1;0;1;
96;OK;0;1;0;2;0;0;0;0;1;0;0;1;0;0;0;1;0;1;0;0;0;0;0;1;0;1;
97;OK;0;1;0;2;0;0;0;0;0;1;0;1;0;0;0;1;0;1;0;0;0;0;0;1;0;1;
98;OK;0;1;0;2;0;0;0;0;1;1;0;1;0;0;0;1;0;1;0;0;0;0;0;1;0;1;
99;OK;0;1;0;2;0;0;0;0;0;0;1;1;0;0;0;1;0;1;0;0;0;0;0;1;0;1;
100;OK;0;1;0;2;0;0;0;0;1;0;1;1;0;0;0;1;0;1;0;0;0;0;0;1;0;1;
101;OK;0;1;0;2;0;1;0;0;1;0;1;1;0;0;0;1;0;1;0;0;0;0;0;1;0;1;
102;OK;0;1;0;2;0;0;0;0;0;1;1;1;0;0;0;1;0;1;0;0;0;0;0;1;0;1;
103;OK;0;1;0;2;0;0;0;1;0;1;1;1;0;0;0;1;0;1;0;0;0;0;0;1;0;1;
104;OK;0;1;0;2;0;0;0;0;1;1;1;1;0;0;0;1;0;1;0;0;0;0;0;1;0;1;
105;OK;0;1;0;2;0;1;0;0;1;1;1;1;0;0;0;1;0;1;0;0;0;0;0;1;0;1;
106;OK;0;1;0;2;0;0;0;1;1;1;1;1;0;0;0;1;0;1;0;0;0;0;0;1;0;1;
107;OK;0;1;0;2;0;1;0;1;1;1;1;1;0;0;0;1;0;1;0;0;0;0;0;1;0;1;
108;OK;0;1;0;2;0;0;0;0;0;0;0;1;0;1;0;1;0;1;0;0;0;0;0;1;0;1;
109;OK;0;1;0;2;0;0;0;0;1;0;0;1;0;1;0;1;0;1;0;0;0;0;0;1;0;1;
110;OK;0;1;0;2;0;0;0;0;0;1;0;1;0;1;0;1;0;1;0;0;0;0;0;1;0;1;
111;OK;0;1;0;2;0;0;0;0;1;1;0;1;0;1;0;1;0;1;0;0;0;0;0;1;0;1;
112;OK;0;1;0;2;0;0;0;0;0;0;1;1;0;1;0;1;0;1;0;0;0;0;0;1;0;1;
113;OK;0;1;0;2;0;0;0;0;1;0;1;1;0;1;0;1;0;1;0;0;0;0;0;1;0;1;
114;OK;0;1;0;2;0;1;0;0;1;0;1;1;0;1;0;1;0;1;0;0;0;0;0;1;0;1;
115;OK;0;1;0;2;0;0;0;0;0;1;1;1;0;1;0;1;0;1;0;0;0;0;0;1;0;1;
116;OK;0;1;0;2;0;0;0;1;0;1;1;1;0;1;0;1;0;1;0;0;0;0;0;1;0;1;
117;OK;0;1;0;2;0;0;0;0;1;1;1;1;0;1;0;1;0;1;0;0;0;0;0;1;0;1;
118;OK;0;1;0;2;0;1;0;0;1;1;1;1;0;1;0;1;0;1;0;0;0;0;0;1;0;1;
119;OK;0;1;0;2;0;0;0;1;1;1;1;1;0;1;0;1;0;1;0;0;0;0;0;1;0;1;
120;OK;0;1;0;2;0;1;0;1;1;1;1;1;0;1;0;1;0;1;0;0;0;0;0;1;0;1;
121;OK;0;1;0;2;0;0;0;0;0;1;0;1;0;0;1;1;0;1;0;0;0;0;0;1;0;1;
122;OK;0;1;0;2;0;0;0;0;1;1;0;1;0;0;1;1;0;1;0;0;0;0;0;1;0;1;
123;OK;0;1;0;2;0;0;0;0;0;1;1;1;0;0;1;1;0;1;0;0;0;0;0;1;0;1;
124;OK;0;1;0;2;0;0;0;1;0;1;1;1;0;0;1;1;0;1;0;0;0;0;0;1;0;1;
125;OK;0;1;0;2;0;0;0;0;1;1;1;1;0;0;1;1;0;1;0;0;0;0;0;1;0;1;
126;OK;0;1;0;2;0;1;0;0;1;1;1;1;0;0;1;1;0;1;0;0;0;0;0;1;0;1;
127;OK;0;1;0;2;0;0;0;1;1;1;1;1;0;0;1;1;0;1;0;0;0;0;0;1;0;1;
128;OK;0;1;0;2;0;1;0;1;1;1;1;1;0;0;1;1;0;1;0;0;0;0;0;1;0;1;
129;OK;0;1;0;2;0;0;0;0;0;1;0;1;0;1;1;1;0;1;0;0;0;0;0;1;0;1;
130;OK;0;1;0;2;0;0;0;0;1;1;0;1;0;1;1;1;0;1;0;0;0;0;0;1;0;1;
131;OK;0;1;0;2;0;0;0;0;0;1;1;1;0;1;1;1;0;1;0;0;0;0;0;1;0;1;
132;OK;0;1;0;2;0;0;0;1;0;1;1;1;0;1;1;1;0;1;0;0;0;0;0;1;0;1;
133;OK;0;1;0;2;0;0;0;0;1;1;1;1;0;1;1;1;0;1;0;0;0;0;0;1;0;1;
134;OK;0;1;0;2;0;1;0;0;1;1;1;1;0;1;1;1;0;1;0;0;0;0;0;1;0;1;
135;OK;0;1;0;2;0;0;0;1;1;1;1;1;0;1;1;1;0;1;0;0;0;0;0;1;0;1;
136;OK;0;1;0;2;0;1;0;1;1;1;1;1;0;1;1;1;0;1;0;0;0;0;0;1;0;1;
137;OK;0;1;0;2;0;0;0;0;0;0;0;1;0;0;0;1;0;1;0;0;0;0;1;1;0;1;
138;OK;0;1;0;2;0;0;0;0;1;0;0;1;0;0;0;1;0;1;0;0;0;0;1;1;0;1;
139;OK;0;1;0;2;0;0;0;0;0;1;0;1;0;0;0;1;0;1;0;0;0;0;1;1;0;1;
140;OK;0;1;0;2;0;0;0;0;1;1;0;1;0;0;0;1;0;1;0;0;0;0;1;1;0;1;
141;OK;0;1;0;2;0;0;0;0;0;0;1;1;0;0;0;1;0;1;0;0;0;0;1;1;0;1;
142;OK;0;1;0;2;0;0;0;0;1;0;1;1;0;0;0;1;0;1;0;0;0;0;1;1;0;1;
143;OK;0;1;0;2;0;1;0;0;1;0;1;1;0;0;0;1;0;1;0;0;0;0;1;1;0;1;
144;OK;0;1;0;2;0;0;0;0;0;1;1;1;0;0;0;1;0;1;0;0;0;0;1;1;0;1;
145;OK;0;1;0;2;0;0;0;1;0;1;1;1;0;0;0;1;0;1;0;0;0;0;1;1;0;1;
146;OK;0;1;0;2;0;0;0;0;1;1;1;1;0;0;0;1;0;1;0;0;0;0;1;1;0;1;
147;OK;0;1;0;2;0;1;0;0;1;1;1;1;0;0;0;1;0;1;0;0;0;0;1;1;0;1;
148;OK;0;1;0;2;0;0;0;1;1;1;1;1;0;0;0;1;0;1;0;0;0;0;1;1;0;1;
149;OK;0;1;0;2;0;1;0;1;1;1;1;1;0;0;0;1;0;1;0;0;0;0;1;1;0;1;
150;OK;0;1;0;2;0;0;0;0;0;0;0;1;0;1;0;1;0;1;0;0;0;0;1;1;0;1;
151;OK;0;1;0;2;0;0;0;0;1;0;0;1;0;1;0;1;0;1;0;0;0;0;1;1;0;1;
152;OK;0;1;0;2;0;0;0;0;0;1;0;1;0;1;0;1;0;1;0;0;0;0;1;1;0;1;
153;OK;0;1;0;2;0;0;0;0;1;1;0;1;0;1;0;1;0;1;0;0;0;0;1;1;0;1;
154;OK;0;1;0;2;0;0;0;0;0;0;1;1;0;1;0;1;0;1;0;0;0;0;1;1;0;1;
155;OK;0;1;0;2;0;0;0;0;1;0;1;1;0;1;0;1;0;1;0;0;0;0;1;1;0;1;
156;OK;0;1;0;2;0;1;0;0;1;0;1;1;0;1;0;1;0;1;0;0;0;0;1;1;0;1;
157;OK;0;1;0;2;0;0;0;0;0;1;1;1;0;1;0;1;0;1;0;0;0;0;1;1;0;1;
158;OK;0;1;0;2;0;0;0;1;0;1;1;1;0;1;0;1;0;1;0;0;0;0;1;1;0;1;
159;OK;0;1;0;2;0;0;0;0;1;1;1;1;0;1;0;1;0;1;0;0;0;0;1;1;0;1;
160;OK;0;1;0;2;0;1;0;0;1;1;1;1;0;1;0;1;0;1;0;0;0;0;1;1;0;1;
161;OK;0;1;0;2;0;0;0;1;1;1;1;1;0;1;0;1;0;1;0;0;0;0;1;1;0;1;
162;OK;0;1;0;2;0;1;0;1;1;1;1;1;0;1;0;1;0;1;0;0;0;0;1;1;0;1;
163;OK;0;1;0;2;0;0;0;0;0;0;0;1;0;0;1;1;0;1;0;0;0;0;1;1;0;1;
164;OK;0;1;0;2;0;0;0;0;1;0;0;1;0;0;1;1;0;1;0;0;0;0;1;1;0;1;
165;OK;0;1;0;2;0;0;0;0;0;1;0;1;0;0;1;1;0;1;0;0;0;0;1;1;0;1;
166;OK;0;1;0;2;0;0;0;0;1;1;0;1;0;0;1;1;0;1;0;0;0;0;1;1;0;1;
167;OK;0;1;0;2;0;0;0;0;0;0;1;1;0;0;1;1;0;1;0;0;0;0;1;1;0;1;
168;OK;0;1;0;2;0;0;0;0;1;0;1;1;0;0;1;1;0;1;0;0;0;0;1;1;0;1;
169;OK;0;1;0;2;0;1;0;0;1;0;1;1;0;0;1;1;0;1;0;0;0;0;1;1;0;1;
170;OK;0;1;0;2;0;0;0;0;0;1;1;1;0;0;1;1;0;1;0;0;0;0;1;1;0;1;
171;OK;0;1;0;2;0;0;0;1;0;1;1;1;0;0;1;1;0;1;0;0;0;0;1;1;0;1;
172;OK;0;1;0;2;0;0;0;0;1;1;1;1;0;0;1;1;0;1;0;0;0;0;1;1;0;1;
173;OK;0;1;0;2;0;1;0;0;1;1;1;1;0;0;1;1;0;1;0;0;0;0;1;1;0;1;
174;OK;0;1;0;2;0;0;0;1;1;1;1;1;0;0;1;1;0;1;0;0;0;0;1;1;0;1;
175;OK;0;1;0;2;0;1;0;1;1;1;1;1;0;0;1;1;0;1;0;0;0;0;1;1;0;1;
176;OK;0;1;0;2;0;0;0;0;0;0;0;1;0;1;1;1;0;1;0;0;0;0;1;1;0;1;
177;OK;0;1;0;2;0;0;0;0;1;0;0;1;0;1;1;1;0;1;0;0;0;0;1;1;0;1;
178;OK;0;1;0;2;0;0;0;0;0;1;0;1;0;1;1;1;0;1;0;0;0;0;1;1;0;1;
179;OK;0;1;0;2;0;0;0;0;1;1;0;1;0;1;1;1;0;1;0;0;0;0;1;1;0;1;
180;OK;0;1;0;2;0;0;0;0;0;0;1;1;0;1;1;1;0;1;0;0;0;0;1;1;0;1;
181;OK;0;1;0;2;0;0;0;0;1;0;1;1;0;1;1;1;0;1;0;0;0;0;1;1;0;1;
182;OK;0;1;0;2;0;1;0;0;1;0;1;1;0;1;1;1;0;1;0;0;0;0;1;1;0;1;
183;OK;0;1;0;2;0;0;0;0;0;1;1;1;0;1;1;1;0;1;0;0;0;0;1;1;0;1;
184;OK;0;1;0;2;0;0;0;1;0;1;1;1;0;1;1;1;0;1;0;0;0;0;1;1;0;1;
185;OK;0;1;0;2;0;0;0;0;1;1;1;1;0;1;1;1;0;1;0;0;0;0;1;1;0;1;
186;OK;0;1;0;2;0;1;0;0;1;1;1;1;0;1;1;1;0;1;0;0;0;0;1;1;0;1;
187;OK;0;1;0;2;0;0;0;1;1;1;1;1;0;1;1;1;0;1;0;0;0;0;1;1;0;1;
188;OK;0;1;0;2;0;1;0;1;1;1;1;1;0;1;1;1;0;1;0;0;0;0;1;1;0;1;
189;OK;0;1;0;2;0;0;0;0;0;0;0;1;0;0;0;1;0;1;0;0;1;0;1;1;0;1;
190;OK;0;1;0;2;0;0;0;0;1;0;0;1;0;0;0;1;0;1;0;0;1;0;1;1;0;1;
191;OK;0;1;0;2;0;0;0;0;0;1;0;1;0;0;0;1;0;1;0;0;1;0;1;1;0;1;
192;OK;0;1;0;2;0;0;0;0;1;1;0;1;0;0;0;1;0;1;0;0;1;0;1;1;0;1;
193;OK;0;1;0;2;0;0;0;0;0;0;1;1;0;0;0;1;0;1;0;0;1;0;1;1;0;1;
194;OK;0;1;0;2;0;0;0;0;1;0;1;1;0;0;0;1;0;1;0;0;1;0;1;1;0;1;
195;OK;0;1;0;2;0;1;0;0;1;0;1;1;0;0;0;1;0;1;0;0;1;0;1;1;0;1;
196;OK;0;1;0;2;0;0;0;0;0;1;1;1;0;0;0;1;0;1;0;0;1;0;1;1;0;1;
197;OK;0;1;0;2;0;0;0;1;0;1;1;1;0;0;0;1;0;1;0;0;1;0;1;1;0;1;
198;OK;0;1;0;2;0;0;0;0;1;1;1;1;0;0;0;1;0;1;0;0;1;0;1;1;0;1;
199;OK;0;1;0;2;0;1;0;0;1;1;1;1;0;0;0;1;0;1;0;0;1;0;1;1;0;1;
200;OK;0;1;0;2;0;0;0;1;1;1;1;1;0;0;0;1;0;1;0;0;1;0;1;1;0;1;
201;OK;0;1;0;2;0;1;0;1;1;1;1;1;0;0;0;1;0;1;0;0;1;0;1;1;0;1;
202;OK;0;1;0;2;0;0;0;0;0;0;0;1;0;1;0;1;0;1;0;0;1;0;1;1;0;1;
203;OK;0;1;0;2;0;0;0;0;1;0;0;1;0;1;0;1;0;1;0;0;1;0;1;1;0;1;
204;OK;0;1;0;2;0;0;0;0;0;1;0;1;0;1;0;1;0;1;0;0;1;0;1;1;0;1;
205;OK;0;1;0;2;0;0;0;0;1;1;0;1;0;1;0;1;0;1;0;0;1;0;1;1;0;1;
206;OK;0;1;0;2;0;0;0;0;0;0;1;1;0;1;0;1;0;1;0;0;1;0;1;1;0;1;
207;OK;0;1;0;2;0;0;0;0;1;0;1;1;0;1;0;1;0;1;0;0;1;0;1;1;0;1;
208;OK;0;1;0;2;0;1;0;0;1;0;1;1;0;1;0;1;0;1;0;0;1;0;1;1;0;1;
209;OK;0;1;0;2;0;0;0;0;0;1;1;1;0;1;0;1;0;1;0;0;1;0;1;1;0;1;
210;OK;0;1;0;2;0;0;0;1;0;1;1;1;0;1;0;1;0;1;0;0;1;0;1;1;0;1;
211;OK;0;1;0;2;0;0;0;0;1;1;1;1;0;1;0;1;0;1;0;0;1;0;1;1;0;1;
212;OK;0;1;0;2;0;1;0;0;1;1;1;1;0;1;0;1;0;1;0;0;1;0;1;1;0;1;
213;OK;0;1;0;2;0;0;0;1;1;1;1;1;0;1;0;1;0;1;0;0;1;0;1;1;0;1;
214;OK;0;1;0;2;0;1;0;1;1;1;1;1;0;1;0;1;0;1;0;0;1;0;1;1;0;1;
215;OK;0;1;0;2;0;0;0;0;0;0;0;1;0;0;1;1;0;1;0;0;1;0;1;1;0;1;
216;OK;0;1;0;2;0;0;0;0;1;0;0;1;0;0;1;1;0;1;0;0;1;0;1;1;0;1;
217;OK;0;1;0;2;0;0;0;0;0;1;0;1;0;0;1;1;0;1;0;0;1;0;1;1;0;1;
218;OK;0;1;0;2;0;0;0;0;1;1;0;1;0;0;1;1;0;1;0;0;1;0;1;1;0;1;
219;OK;0;1;0;2;0;0;0;0;0;0;1;1;0;0;1;1;0;1;0;0;1;0;1;1;0;1;
220;OK;0;1;0;2;0;0;0;0;1;0;1;1;0;0;1;1;0;1;0;0;1;0;1;1;0;1;
221;OK;0;1;0;2;0;1;0;0;1;0;1;1;0;0;1;1;0;1;0;0;1;0;1;1;0;1;
222;OK;0;1;0;2;0;0;0;0;0;1;1;1;0;0;1;1;0;1;0;0;1;0;1;1;0;1;
223;OK;0;1;0;2;0;0;0;1;0;1;1;1;0;0;1;1;0;1;0;0;1;0;1;1;0;1;
224;OK;0;1;0;2;0;0;0;0;1;1;1;1;0;0;1;1;0;1;0;0;1;0;1;1;0;1;
225;OK;0;1;0;2;0;1;0;0;1;1;1;1;0;0;1;1;0;1;0;0;1;0;1;1;0;1;
226;OK;0;1;0;2;0;0;0;1;1;1;1;1;0;0;1;1;0;1;0;0;1;0;1;1;0;1;
227;OK;0;1;0;2;0;1;0;1;1;1;1;1;0;0;1;1;0;1;0;0;1;0;1;1;0;1;
228;OK;0;1;0;2;0;0;0;0;0;0;0;1;0;1;1;1;0;1;0;0;1;0;1;1;0;1;
229;OK;0;1;0;2;0;0;0;0;1;0;0;1;0;1;1;1;0;1;0;0;1;0;1;1;0;1;
230;OK;0;1;0;2;0;0;0;0;0;1;0;1;0;1;1;1;0;1;0;0;1;0;1;1;0;1;
231;OK;0;1;0;2;0;0;0;0;1;1;0;1;0;1;1;1;0;1;0;0;1;0;1;1;0;1;
232;OK;0;1;0;2;0;0;0;0;0;0;1;1;0;1;1;1;0;1;0;0;1;0;1;1;0;1;
233;OK;0;1;0;2;0;0;0;0;1;0;1;1;0;1;1;1;0;1;0;0;1;0;1;1;0;1;
234;OK;0;1;0;2;0;1;0;0;1;0;1;1;0;1;1;1;0;1;0;0;1;0;1;1;0;1;
235;OK;0;1;0;2;0;0;0;0;0;1;1;1;0;1;1;1;0;1;0;0;1;0;1;1;0;1;
236;OK;0;1;0;2;0;0;0;1;0;1;1;1;0;1;1;1;0;1;0;0;1;0;1;1;0;1;
237;OK;0;1;0;2;0;0;0;0;1;1;1;1;0;1;1;1;0;1;0;0;1;0;1;1;0;1;
238;OK;0;1;0;2;0;1;0;0;1;1;1;1;0;1;1;1;0;1;0;0;1;0;1;1;0;1;
239;OK;0;1;0;2;0;0;0;1;1;1;1;1;0;1;1;1;0;1;0;0;1;0;1;1;0;1;
240;OK;0;1;0;2;0;1;0;1;1;1;1;1;0;1;1;1;0;1;0;0;1;0;1;1;0;1;
241;OK;0;1;0;2;0;0;0;0;0;0;0;1;0;0;0;1;0;1;0;0;0;0;0;0;1;1;
242;OK;0;1;0;2;0;0;0;0;1;0;0;1;0;0;0;1;0;1;0;0;0;0;0;0;1;1;
243;OK;0;1;0;2;0;0;0;0;0;1;0;1;0;0;0;1;0;1;0;0;0;0;0;0;1;1;
244;OK;0;1;0;2;0;0;0;0;1;1;0;1;0;0;0;1;0;1;0;0;0;0;0;0;1;1;
245;OK;0;1;0;2;0;0;0;0;0;0;1;1;0;0;0;1;0;1;0;0;0;0;0;0;1;1;
246;OK;0;1;0;2;0;0;0;0;1;0;1;1;0;0;0;1;0;1;0;0;0;0;0;0;1;1;
247;OK;0;1;0;2;0;1;0;0;1;0;1;1;0;0;0;1;0;1;0;0;0;0;0;0;1;1;
248;OK;0;1;0;2;0;0;0;0;0;1;1;1;0;0;0;1;0;1;0;0;0;0;0;0;1;1;
249;OK;0;1;0;2;0;0;0;1;0;1;1;1;0;0;0;1;0;1;0;0;0;0;0;0;1;1;
250;OK;0;1;0;2;0;0;0;0;1;1;1;1;0;0;0;1;0;1;0;0;0;0;0;0;1;1;
251;OK;0;1;0;2;0;1;0;0;1;1;1;1;0;0;0;1;0;1;0;0;0;0;0;0;1;1;
252;OK;0;1;0;2;0;0;0;1;1;1;1;1;0;0;0;1;0;1;0;0;0;0;0;0;1;1;
253;OK;0;1;0;2;0;1;0;1;1;1;1;1;0;0;0;1;0;1;0;0;0;0;0;0;1;1;
254;OK;0;1;0;2;0;0;0;0;0;0;0;1;0;1;0;1;0;1;0;0;0;0;0;0;1;1;
255;OK;0;1;0;2;0;0;0;0;1;0;0;1;0;1;0;1;0;1;0;0;0;0;0;0;1;1;
256;OK;0;1;0;2;0;0;0;0;0;1;0;1;0;1;0;1;0;1;0;0;0;0;0;0;1;1;
257;OK;0;1;0;2;0;0;0;0;1;1;0;1;0;1;0;1;0;1;0;0;0;0;0;0;1;1;
258;OK;0;1;0;2;0;0;0;0;0;0;1;1;0;1;0;1;0;1;0;0;0;0;0;0;1;1;
259;OK;0;1;0;2;0;0;0;0;1;0;1;1;0;1;0;1;0;1;0;0;0;0;0;0;1;1;
260;OK;0;1;0;2;0;1;0;0;1;0;1;1;0;1;0;1;0;1;0;0;0;0;0;0;1;1;
261;OK;0;1;0;2;0;0;0;0;0;1;1;1;0;1;0;1;0;1;0;0;0;0;0;0;1;1;
262;OK;0;1;0;2;0;0;0;1;0;1;1;1;0;1;0;1;0;1;0;0;0;0;0;0;1;1;
263;OK;0;1;0;2;0;0;0;0;1;1;1;1;0;1;0;1;0;1;0;0;0;0;0;0;1;1;
264;OK;0;1;0;2;0;1;0;0;1;1;1;1;0;1;0;1;0;1;0;0;0;0;0;0;1;1;
265;OK;0;1;0;2;0;0;0;1;1;1;1;1;0;1;0;1;0;1;0;0;0;0;0;0;1;1;
266;OK;0;1;0;2;0;1;0;1;1;1;1;1;0;1;0;1;0;1;0;0;0;0;0;0;1;1;
267;OK;0;1;0;2;0;0;0;0;0;1;0;1;0;0;1;1;0;1;0;0;0;0;0;0;1;1;
268;OK;0;1;0;2;0;0;0;0;1;1;0;1;0;0;1;1;0;1;0;0;0;0;0;0;1;1;
269;OK;0;1;0;2;0;0;0;0;0;1;1;1;0;0;1;1;0;1;0;0;0;0;0;0;1;1;
270;OK;0;1;0;2;0;0;0;1;0;1;1;1;0;0;1;1;0;1;0;0;0;0;0;0;1;1;
271;OK;0;1;0;2;0;0;0;0;1;1;1;1;0;0;1;1;0;1;0;0;0;0;0;0;1;1;
272;OK;0;1;0;2;0;1;0;0;1;1;1;1;0;0;1;1;0;1;0;0;0;0;0;0;1;1;
273;OK;0;1;0;2;0;0;0;1;1;1;1;1;0;0;1;1;0;1;0;0;0;0;0;0;1;1;
274;OK;0;1;0;2;0;1;0;1;1;1;1;1;0;0;1;1;0;1;0;0;0;0;0;0;1;1;
275;OK;0;1;0;2;0;0;0;0;0;1;0;1;0;1;1;1;0;1;0;0;0;0;0;0;1;1;
276;OK;0;1;0;2;0;0;0;0;1;1;0;1;0;1;1;1;0;1;0;0;0;0;0;0;1;1;
277;OK;0;1;0;2;0;0;0;0;0;1;1;1;0;1;1;1;0;1;0;0;0;0;0;0;1;1;
278;OK;0;1;0;2;0;0;0;1;0;1;1;1;0;1;1;1;0;1;0;0;0;0;0;0;1;1;
279;OK;0;1;0;2;0;0;0;0;1;1;1;1;0;1;1;1;0;1;0;0;0;0;0;0;1;1;
280;OK;0;1;0;2;0;1;0;0;1;1;1;1;0;1;1;1;0;1;0;0;0;0;0;0;1;1;
281;OK;0;1;0;2;0;0;0;1;1;1;1;1;0;1;1;1;0;1;0;0;0;0;0;0;1;1;
282;OK;0;1;0;2;0;1;0;1;1;1;1;1;0;1;1;1;0;1;0;0;0;0;0;0;1;1;
283;OK;0;1;0;2;0;0;0;0;0;0;0;1;0;0;0;1;0;1;0;0;0;0;1;0;1;1;
284;OK;0;1;0;2;0;0;0;0;1;0;0;1;0;0;0;1;0;1;0;0;0;0;1;0;1;1;
285;OK;0;1;0;2;0;0;0;0;0;1;0;1;0;0;0;1;0;1;0;0;0;0;1;0;1;1;
286;OK;0;1;0;2;0;0;0;0;1;1;0;1;0;0;0;1;0;1;0;0;0;0;1;0;1;1;
287;OK;0;1;0;2;0;0;0;0;0;0;1;1;0;0;0;1;0;1;0;0;0;0;1;0;1;1;
288;OK;0;1;0;2;0;0;0;0;1;0;1;1;0;0;0;1;0;1;0;0;0;0;1;0;1;1;
289;OK;0;1;0;2;0;1;0;0;1;0;1;1;0;0;0;1;0;1;0;0;0;0;1;0;1;1;
290;OK;0;1;0;2;0;0;0;0;0;1;1;1;0;0;0;1;0;1;0;0;0;0;1;0;1;1;
291;OK;0;1;0;2;0;0;0;1;0;1;1;1;0;0;0;1;0;1;0;0;0;0;1;0;1;1;
292;OK;0;1;0;2;0;0;0;0;1;1;1;1;0;0;0;1;0;1;0;0;0;0;1;0;1;1;
293;OK;0;1;0;2;0;1;0;0;1;1;1;1;0;0;0;1;0;1;0;0;0;0;1;0;1;1;
294;OK;0;1;0;2;0;0;0;1;1;1;1;1;0;0;0;1;0;1;0;0;0;0;1;0;1;1;
295;OK;0;1;0;2;0;1;0;1;1;1;1;1;0;0;0;1;0;1;0;0;0;0;1;0;1;1;
296;OK;0;1;0;2;0;0;0;0;0;0;0;1;0;1;0;1;0;1;0;0;0;0;1;0;1;1;
297;OK;0;1;0;2;0;0;0;0;1;0;0;1;0;1;0;1;0;1;0;0;0;0;1;0;1;1;
298;OK;0;1;0;2;0;0;0;0;0;1;0;1;0;1;0;1;0;1;0;0;0;0;1;0;1;1;
299;OK;0;1;0;2;0;0;0;0;1;1;0;1;0;1;0;1;0;1;0;0;0;0;1;0;1;1;
300;OK;0;1;0;2;0;0;0;0;0;0;1;1;0;1;0;1;0;1;0;0;0;0;1;0;1;1;
301;OK;0;1;0;2;0;0;0;0;1;0;1;1;0;1;0;1;0;1;0;0;0;0;1;0;1;1;
302;OK;0;1;0;2;0;1;0;0;1;0;1;1;0;1;0;1;0;1;0;0;0;0;1;0;1;1;
303;OK;0;1;0;2;0;0;0;0;0;1;1;1;0;1;0;1;0;1;0;0;0;0;1;0;1;1;
304;OK;0;1;0;2;0;0;0;1;0;1;1;1;0;1;0;1;0;1;0;0;0;0;1;0;1;1;
305;OK;0;1;0;2;0;0;0;0;1;1;1;1;0;1;0;1;0;1;0;0;0;0;1;0;1;1;
306;OK;0;1;0;2;0;1;0;0;1;1;1;1;0;1;0;1;0;1;0;0;0;0;1;0;1;1;
307;OK;0;1;0;2;0;0;0;1;1;1;1;1;0;1;0;1;0;1;0;0;0;0;1;0;1;1;
308;OK;0;1;0;2;0;1;0;1;1;1;1;1;0;1;0;1;0;1;0;0;0;0;1;0;1;1;
309;OK;0;1;0;2;0;0;0;0;0;0;0;1;0;0;1;1;0;1;0;0;0;0;1;0;1;1;
310;OK;0;1;0;2;0;0;0;0;1;0;0;1;0;0;1;1;0;1;0;0;0;0;1;0;1;1;
311;OK;0;1;0;2;0;0;0;0;0;1;0;1;0;0;1;1;0;1;0;0;0;0;1;0;1;1;
312;OK;0;1;0;2;0;0;0;0;1;1;0;1;0;0;1;1;0;1;0;0;0;0;1;0;1;1;
313;OK;0;1;0;2;0;0;0;0;0;0;1;1;0;0;1;1;0;1;0;0;0;0;1;0;1;1;
314;OK;0;1;0;2;0;0;0;0;1;0;1;1;0;0;1;1;0;1;0;0;0;0;1;0;1;1;
315;OK;0;1;0;2;0;1;0;0;1;0;1;1;0;0;1;1;0;1;0;0;0;0;1;0;1;1;
316;OK;0;1;0;2;0;0;0;0;0;1;1;1;0;0;1;1;0;1;0;0;0;0;1;0;1;1;
317;OK;0;1;0;2;0;0;0;1;0;1;1;1;0;0;1;1;0;1;0;0;0;0;1;0;1;1;
318;OK;0;1;0;2;0;0;0;0;1;1;1;1;0;0;1;1;0;1;0;0;0;0;1;0;1;1;
319;OK;0;1;0;2;0;1;0;0;1;1;1;1;0;0;1;1;0;1;0;0;0;0;1;0;1;1;
320;OK;0;1;0;2;0;0;0;1;1;1;1;1;0;0;1;1;0;1;0;0;0;0;1;0;1;1;
321;OK;0;1;0;2;0;1;0;1;1;1;1;1;0;0;1;1;0;1;0;0;0;0;1;0;1;1;
322;OK;0;1;0;2;0;0;0;0;0;0;0;1;0;1;1;1;0;1;0;0;0;0;1;0;1;1;
323;OK;0;1;0;2;0;0;0;0;1;0;0;1;0;1;1;1;0;1;0;0;0;0;1;0;1;1;
324;OK;0;1;0;2;0;0;0;0;0;1;0;1;0;1;1;1;0;1;0;0;0;0;1;0;1;1;
325;OK;0;1;0;2;0;0;0;0;1;1;0;1;0;1;1;1;0;1;0;0;0;0;1;0;1;1;
326;OK;0;1;0;2;0;0;0;0;0;0;1;1;0;1;1;1;0;1;0;0;0;0;1;0;1;1;
327;OK;0;1;0;2;0;0;0;0;1;0;1;1;0;1;1;1;0;1;0;0;0;0;1;0;1;1;
328;OK;0;1;0;2;0;1;0;0;1;0;1;1;0;1;1;1;0;1;0;0;0;0;1;0;1;1;
329;OK;0;1;0;2;0;0;0;0;0;1;1;1;0;1;1;1;0;1;0;0;0;0;1;0;1;1;
330;OK;0;1;0;2;0;0;0;1;0;1;1;1;0;1;1;1;0;1;0;0;0;0;1;0;1;1;
331;OK;0;1;0;2;0;0;0;0;1;1;1;1;0;1;1;1;0;1;0;0;0;0;1;0;1;1;
332;OK;0;1;0;2;0;1;0;0;1;1;1;1;0;1;1;1;0;1;0;0;0;0;1;0;1;1;
333;OK;0;1;0;2;0;0;0;1;1;1;1;1;0;1;1;1;0;1;0;0;0;0;1;0;1;1;
334;OK;0;1;0;2;0;1;0;1;1;1;1;1;0;1;1;1;0;1;0;0;0;0;1;0;1;1;
335;OK;0;1;0;2;0;0;0;0;0;0;0;1;0;0;0;1;0;1;0;0;0;0;0;1;1;1;
336;OK;0;1;0;2;0;0;0;0;1;0;0;1;0;0;0;1;0;1;0;0;0;0;0;1;1;1;
337;OK;0;1;0;2;0;0;0;0;0;1;0;1;0;0;0;1;0;1;0;0;0;0;0;1;1;1;
338;OK;0;1;0;2;0;0;0;0;1;1;0;1;0;0;0;1;0;1;0;0;0;0;0;1;1;1;
339;OK;0;1;0;2;0;0;0;0;0;0;1;1;0;0;0;1;0;1;0;0;0;0;0;1;1;1;
340;OK;0;1;0;2;0;0;0;0;1;0;1;1;0;0;0;1;0;1;0;0;0;0;0;1;1;1;
341;OK;0;1;0;2;0;1;0;0;1;0;1;1;0;0;0;1;0;1;0;0;0;0;0;1;1;1;
342;OK;0;1;0;2;0;0;0;0;0;1;1;1;0;0;0;1;0;1;0;0;0;0;0;1;1;1;
343;OK;0;1;0;2;0;0;0;1;0;1;1;1;0;0;0;1;0;1;0;0;0;0;0;1;1;1;
344;OK;0;1;0;2;0;0;0;0;1;1;1;1;0;0;0;1;0;1;0;0;0;0;0;1;1;1;
345;OK;0;1;0;2;0;1;0;0;1;1;1;1;0;0;0;1;0;1;0;0;0;0;0;1;1;1;
346;OK;0;1;0;2;0;0;0;1;1;1;1;1;0;0;0;1;0;1;0;0;0;0;0;1;1;1;
347;OK;0;1;0;2;0;1;0;1;1;1;1;1;0;0;0;1;0;1;0;0;0;0;0;1;1;1;
348;OK;0;1;0;2;0;0;0;0;0;0;0;1;0;1;0;1;0;1;0;0;0;0;0;1;1;1;
349;OK;0;1;0;2;0;0;0;0;1;0;0;1;0;1;0;1;0;1;0;0;0;0;0;1;1;1;
350;OK;0;1;0;2;0;0;0;0;0;1;0;1;0;1;0;1;0;1;0;0;0;0;0;1;1;1;
351;OK;0;1;0;2;0;0;0;0;1;1;0;1;0;1;0;1;0;1;0;0;0;0;0;1;1;1;
352;OK;0;1;0;2;0;0;0;0;0;0;1;1;0;1;0;1;0;1;0;0;0;0;0;1;1;1;
353;OK;0;1;0;2;0;0;0;0;1;0;1;1;0;1;0;1;0;1;0;0;0;0;0;1;1;1;
354;OK;0;1;0;2;0;1;0;0;1;0;1;1;0;1;0;1;0;1;0;0;0;0;0;1;1;1;
355;OK;0;1;0;2;0;0;0;0;0;1;1;1;0;1;0;1;0;1;0;0;0;0;0;1;1;1;
356;OK;0;1;0;2;0;0;0;1;0;1;1;1;0;1;0;1;0;1;0;0;0;0;0;1;1;1;
357;OK;0;1;0;2;0;0;0;0;1;1;1;1;0;1;0;1;0;1;0;0;0;0;0;1;1;1;
358;OK;0;1;0;2;0;1;0;0;1;1;1;1;0;1;0;1;0;1;0;0;0;0;0;1;1;1;
359;OK;0;1;0;2;0;0;0;1;1;1;1;1;0;1;0;1;0;1;0;0;0;0;0;1;1;1;
360;OK;0;1;0;2;0;1;0;1;1;1;1;1;0;1;0;1;0;1;0;0;0;0;0;1;1;1;
361;OK;0;1;0;2;0;0;0;0;0;1;0;1;0;0;1;1;0;1;0;0;0;0;0;1;1;1;
362;OK;0;1;0;2;0;0;0;0;1;1;0;1;0;0;1;1;0;1;0;0;0;0;0;1;1;1;
363;OK;0;1;0;2;0;0;0;0;0;1;1;1;0;0;1;1;0;1;0;0;0;0;0;1;1;1;
364;OK;0;1;0;2;0;0;0;1;0;1;1;1;0;0;1;1;0;1;0;0;0;0;0;1;1;1;
365;OK;0;1;0;2;0;0;0;0;1;1;1;1;0;0;1;1;0;1;0;0;0;0;0;1;1;1;
366;OK;0;1;0;2;0;1;0;0;1;1;1;1;0;0;1;1;0;1;0;0;0;0;0;1;1;1;
367;OK;0;1;0;2;0;0;0;1;1;1;1;1;0;0;1;1;0;1;0;0;0;0;0;1;1;1;
368;OK;0;1;0;2;0;1;0;1;1;1;1;1;0;0;1;1;0;1;0;0;0;0;0;1;1;1;
369;OK;0;1;0;2;0;0;0;0;0;1;0;1;0;1;1;1;0;1;0;0;0;0;0;1;1;1;
370;OK;0;1;0;2;0;0;0;0;1;1;0;1;0;1;1;1;0;1;0;0;0;0;0;1;1;1;
371;OK;0;1;0;2;0;0;0;0;0;1;1;1;0;1;1;1;0;1;0;0;0;0;0;1;1;1;
372;OK;0;1;0;2;0;0;0;1;0;1;1;1;0;1;1;1;0;1;0;0;0;0;0;1;1;1;
373;OK;0;1;0;2;0;0;0;0;1;1;1;1;0;1;1;1;0;1;0;0;0;0;0;1;1;1;
374;OK;0;1;0;2;0;1;0;0;1;1;1;1;0;1;1;1;0;1;0;0;0;0;0;1;1;1;
375;OK;0;1;0;2;0;0;0;1;1;1;1;1;0;1;1;1;0;1;0;0;0;0;0;1;1;1;
376;OK;0;1;0;2;0;1;0;1;1;1;1;1;0;1;1;1;0;1;0;0;0;0;0;1;1;1;
377;OK;0;1;0;2;0;0;0;0;0;0;0;1;0;0;0;1;0;1;0;0;0;1;0;1;1;1;
378;OK;0;1;0;2;0;0;0;0;1;0;0;1;0;0;0;1;0;1;0;0;0;1;0;1;1;1;
379;OK;0;1;0;2;0;0;0;0;0;1;0;1;0;0;0;1;0;1;0;0;0;1;0;1;1;1;
380;OK;0;1;0;2;0;0;0;0;1;1;0;1;0;0;0;1;0;1;0;0;0;1;0;1;1;1;
381;OK;0;1;0;2;0;0;0;0;0;0;1;1;0;0;0;1;0;1;0;0;0;1;0;1;1;1;
382;OK;0;1;0;2;0;0;0;0;1;0;1;1;0;0;0;1;0;1;0;0;0;1;0;1;1;1;
383;OK;0;1;0;2;0;0;0;0;0;1;1;1;0;0;0;1;0;1;0;0;0;1;0;1;1;1;
384;OK;0;1;0;2;0;0;0;1;0;1;1;1;0;0;0;1;0;1;0;0;0;1;0;1;1;1;
385;OK;0;1;0;2;0;0;0;0;1;1;1;1;0;0;0;1;0;1;0;0;0;1;0;1;1;1;
386;OK;0;1;0;2;0;0;0;1;1;1;1;1;0;0;0;1;0;1;0;0;0;1;0;1;1;1;
387;OK;0;1;0;2;0;0;0;0;0;0;0;1;0;1;0;1;0;1;0;0;0;1;0;1;1;1;
388;OK;0;1;0;2;0;0;0;0;1;0;0;1;0;1;0;1;0;1;0;0;0;1;0;1;1;1;
389;OK;0;1;0;2;0;0;0;0;0;1;0;1;0;1;0;1;0;1;0;0;0;1;0;1;1;1;
390;OK;0;1;0;2;0;0;0;0;1;1;0;1;0;1;0;1;0;1;0;0;0;1;0;1;1;1;
391;OK;0;1;0;2;0;0;0;0;0;0;1;1;0;1;0;1;0;1;0;0;0;1;0;1;1;1;
392;OK;0;1;0;2;0;0;0;0;1;0;1;1;0;1;0;1;0;1;0;0;0;1;0;1;1;1;
393;OK;0;1;0;2;0;1;0;0;1;0;1;1;0;1;0;1;0;1;0;0;0;1;0;1;1;1;
394;OK;0;1;0;2;0;0;0;0;0;1;1;1;0;1;0;1;0;1;0;0;0;1;0;1;1;1;
395;OK;0;1;0;2;0;0;0;1;0;1;1;1;0;1;0;1;0;1;0;0;0;1;0;1;1;1;
396;OK;0;1;0;2;0;0;0;0;1;1;1;1;0;1;0;1;0;1;0;0;0;1;0;1;1;1;
397;OK;0;1;0;2;0;1;0;0;1;1;1;1;0;1;0;1;0;1;0;0;0;1;0;1;1;1;
398;OK;0;1;0;2;0;0;0;1;1;1;1;1;0;1;0;1;0;1;0;0;0;1;0;1;1;1;
399;OK;0;1;0;2;0;1;0;1;1;1;1;1;0;1;0;1;0;1;0;0;0;1;0;1;1;1;
400;OK;0;1;0;2;0;0;0;0;0;1;0;1;0;0;1;1;0;1;0;0;0;1;0;1;1;1;
401;OK;0;1;0;2;0;0;0;0;1;1;0;1;0;0;1;1;0;1;0;0;0;1;0;1;1;1;
402;OK;0;1;0;2;0;0;0;0;0;1;1;1;0;0;1;1;0;1;0;0;0;1;0;1;1;1;
403;OK;0;1;0;2;0;0;0;1;0;1;1;1;0;0;1;1;0;1;0;0;0;1;0;1;1;1;
404;OK;0;1;0;2;0;0;0;0;1;1;1;1;0;0;1;1;0;1;0;0;0;1;0;1;1;1;
405;OK;0;1;0;2;0;0;0;1;1;1;1;1;0;0;1;1;0;1;0;0;0;1;0;1;1;1;
406;OK;0;1;0;2;0;0;0;0;0;1;0;1;0;1;1;1;0;1;0;0;0;1;0;1;1;1;
407;OK;0;1;0;2;0;0;0;0;1;1;0;1;0;1;1;1;0;1;0;0;0;1;0;1;1;1;
408;OK;0;1;0;2;0;0;0;0;0;1;1;1;0;1;1;1;0;1;0;0;0;1;0;1;1;1;
409;OK;0;1;0;2;0;0;0;1;0;1;1;1;0;1;1;1;0;1;0;0;0;1;0;1;1;1;
410;OK;0;1;0;2;0;0;0;0;1;1;1;1;0;1;1;1;0;1;0;0;0;1;0;1;1;1;
411;OK;0;1;0;2;0;1;0;0;1;1;1;1;0;1;1;1;0;1;0;0;0;1;0;1;1;1;
412;OK;0;1;0;2;0;0;0;1;1;1;1;1;0;1;1;1;0;1;0;0;0;1;0;1;1;1;
413;OK;0;1;0;2;0;1;0;1;1;1;1;1;0;1;1;1;0;1;0;0;0;1;0;1;1;1;
414;OK;0;1;0;2;0;0;0;0;0;0;0;1;0;0;0;1;0;1;0;0;0;0;1;1;1;1;
415;OK;0;1;0;2;0;0;0;0;1;0;0;1;0;0;0;1;0;1;0;0;0;0;1;1;1;1;
416;OK;0;1;0;2;0;0;0;0;0;1;0;1;0;0;0;1;0;1;0;0;0;0;1;1;1;1;
417;OK;0;1;0;2;0;0;0;0;1;1;0;1;0;0;0;1;0;1;0;0;0;0;1;1;1;1;
418;OK;0;1;0;2;0;0;0;0;0;0;1;1;0;0;0;1;0;1;0;0;0;0;1;1;1;1;
419;OK;0;1;0;2;0;0;0;0;1;0;1;1;0;0;0;1;0;1;0;0;0;0;1;1;1;1;
420;OK;0;1;0;2;0;1;0;0;1;0;1;1;0;0;0;1;0;1;0;0;0;0;1;1;1;1;
421;OK;0;1;0;2;0;0;0;0;0;1;1;1;0;0;0;1;0;1;0;0;0;0;1;1;1;1;
422;OK;0;1;0;2;0;0;0;1;0;1;1;1;0;0;0;1;0;1;0;0;0;0;1;1;1;1;
423;OK;0;1;0;2;0;0;0;0;1;1;1;1;0;0;0;1;0;1;0;0;0;0;1;1;1;1;
424;OK;0;1;0;2;0;1;0;0;1;1;1;1;0;0;0;1;0;1;0;0;0;0;1;1;1;1;
425;OK;0;1;0;2;0;0;0;1;1;1;1;1;0;0;0;1;0;1;0;0;0;0;1;1;1;1;
426;OK;0;1;0;2;0;1;0;1;1;1;1;1;0;0;0;1;0;1;0;0;0;0;1;1;1;1;
427;OK;0;1;0;2;0;0;0;0;0;0;0;1;0;1;0;1;0;1;0;0;0;0;1;1;1;1;
428;OK;0;1;0;2;0;0;0;0;1;0;0;1;0;1;0;1;0;1;0;0;0;0;1;1;1;1;
429;OK;0;1;0;2;0;0;0;0;0;1;0;1;0;1;0;1;0;1;0;0;0;0;1;1;1;1;
430;OK;0;1;0;2;0;0;0;0;1;1;0;1;0;1;0;1;0;1;0;0;0;0;1;1;1;1;
431;OK;0;1;0;2;0;0;0;0;0;0;1;1;0;1;0;1;0;1;0;0;0;0;1;1;1;1;
432;OK;0;1;0;2;0;0;0;0;1;0;1;1;0;1;0;1;0;1;0;0;0;0;1;1;1;1;
433;OK;0;1;0;2;0;1;0;0;1;0;1;1;0;1;0;1;0;1;0;0;0;0;1;1;1;1;
434;OK;0;1;0;2;0;0;0;0;0;1;1;1;0;1;0;1;0;1;0;0;0;0;1;1;1;1;
435;OK;0;1;0;2;0;0;0;1;0;1;1;1;0;1;0;1;0;1;0;0;0;0;1;1;1;1;
436;OK;0;1;0;2;0;0;0;0;1;1;1;1;0;1;0;1;0;1;0;0;0;0;1;1;1;1;
437;OK;0;1;0;2;0;1;0;0;1;1;1;1;0;1;0;1;0;1;0;0;0;0;1;1;1;1;
438;OK;0;1;0;2;0;0;0;1;1;1;1;1;0;1;0;1;0;1;0;0;0;0;1;1;1;1;
439;OK;0;1;0;2;0;1;0;1;1;1;1;1;0;1;0;1;0;1;0;0;0;0;1;1;1;1;
440;OK;0;1;0;2;0;0;0;0;0;0;0;1;0;0;1;1;0;1;0;0;0;0;1;1;1;1;
441;OK;0;1;0;2;0;0;0;0;1;0;0;1;0;0;1;1;0;1;0;0;0;0;1;1;1;1;
442;OK;0;1;0;2;0;0;0;0;0;1;0;1;0;0;1;1;0;1;0;0;0;0;1;1;1;1;
443;OK;0;1;0;2;0;0;0;0;1;1;0;1;0;0;1;1;0;1;0;0;0;0;1;1;1;1;
444;OK;0;1;0;2;0;0;0;0;0;0;1;1;0;0;1;1;0;1;0;0;0;0;1;1;1;1;
445;OK;0;1;0;2;0;0;0;0;1;0;1;1;0;0;1;1;0;1;0;0;0;0;1;1;1;1;
446;OK;0;1;0;2;0;1;0;0;1;0;1;1;0;0;1;1;0;1;0;0;0;0;1;1;1;1;
447;OK;0;1;0;2;0;0;0;0;0;1;1;1;0;0;1;1;0;1;0;0;0;0;1;1;1;1;
448;OK;0;1;0;2;0;0;0;1;0;1;1;1;0;0;1;1;0;1;0;0;0;0;1;1;1;1;
449;OK;0;1;0;2;0;0;0;0;1;1;1;1;0;0;1;1;0;1;0;0;0;0;1;1;1;1;
450;OK;0;1;0;2;0;1;0;0;1;1;1;1;0;0;1;1;0;1;0;0;0;0;1;1;1;1;
451;OK;0;1;0;2;0;0;0;1;1;1;1;1;0;0;1;1;0;1;0;0;0;0;1;1;1;1;
452;OK;0;1;0;2;0;1;0;1;1;1;1;1;0;0;1;1;0;1;0;0;0;0;1;1;1;1;
453;OK;0;1;0;2;0;0;0;0;0;0;0;1;0;1;1;1;0;1;0;0;0;0;1;1;1;1;
454;OK;0;1;0;2;0;0;0;0;1;0;0;1;0;1;1;1;0;1;0;0;0;0;1;1;1;1;
455;OK;0;1;0;2;0;0;0;0;0;1;0;1;0;1;1;1;0;1;0;0;0;0;1;1;1;1;
456;OK;0;1;0;2;0;0;0;0;1;1;0;1;0;1;1;1;0;1;0;0;0;0;1;1;1;1;
457;OK;0;1;0;2;0;0;0;0;0;0;1;1;0;1;1;1;0;1;0;0;0;0;1;1;1;1;
458;OK;0;1;0;2;0;0;0;0;1;0;1;1;0;1;1;1;0;1;0;0;0;0;1;1;1;1;
459;OK;0;1;0;2;0;1;0;0;1;0;1;1;0;1;1;1;0;1;0;0;0;0;1;1;1;1;
460;OK;0;1;0;2;0;0;0;0;0;1;1;1;0;1;1;1;0;1;0;0;0;0;1;1;1;1;
461;OK;0;1;0;2;0;0;0;1;0;1;1;1;0;1;1;1;0;1;0;0;0;0;1;1;1;1;
462;OK;0;1;0;2;0;0;0;0;1;1;1;1;0;1;1;1;0;1;0;0;0;0;1;1;1;1;
463;OK;0;1;0;2;0;1;0;0;1;1;1;1;0;1;1;1;0;1;0;0;0;0;1;1;1;1;
464;OK;0;1;0;2;0;0;0;1;1;1;1;1;0;1;1;1;0;1;0;0;0;0;1;1;1;1;
465;OK;0;1;0;2;0;1;0;1;1;1;1;1;0;1;1;1;0;1;0;0;0;0;1;1;1;1;
466;OK;0;1;0;2;0;0;0;0;0;0;0;1;0;0;0;1;0;1;0;0;1;0;1;1;1;1;
467;OK;0;1;0;2;0;0;0;0;1;0;0;1;0;0;0;1;0;1;0;0;1;0;1;1;1;1;
468;OK;0;1;0;2;0;0;0;0;0;1;0;1;0;0;0;1;0;1;0;0;1;0;1;1;1;1;
469;OK;0;1;0;2;0;0;0;0;1;1;0;1;0;0;0;1;0;1;0;0;1;0;1;1;1;1;
470;OK;0;1;0;2;0;0;0;0;0;0;1;1;0;0;0;1;0;1;0;0;1;0;1;1;1;1;
471;OK;0;1;0;2;0;0;0;0;1;0;1;1;0;0;0;1;0;1;0;0;1;0;1;1;1;1;
472;OK;0;1;0;2;0;1;0;0;1;0;1;1;0;0;0;1;0;1;0;0;1;0;1;1;1;1;
473;OK;0;1;0;2;0;0;0;0;0;1;1;1;0;0;0;1;0;1;0;0;1;0;1;1;1;1;
474;OK;0;1;0;2;0;0;0;1;0;1;1;1;0;0;0;1;0;1;0;0;1;0;1;1;1;1;
475;OK;0;1;0;2;0;0;0;0;1;1;1;1;0;0;0;1;0;1;0;0;1;0;1;1;1;1;
476;OK;0;1;0;2;0;1;0;0;1;1;1;1;0;0;0;1;0;1;0;0;1;0;1;1;1;1;
477;OK;0;1;0;2;0;0;0;1;1;1;1;1;0;0;0;1;0;1;0;0;1;0;1;1;1;1;
478;OK;0;1;0;2;0;1;0;1;1;1;1;1;0;0;0;1;0;1;0;0;1;0;1;1;1;1;
479;OK;0;1;0;2;0;0;0;0;0;0;0;1;0;1;0;1;0;1;0;0;1;0;1;1;1;1;
480;OK;0;1;0;2;0;0;0;0;1;0;0;1;0;1;0;1;0;1;0;0;1;0;1;1;1;1;
481;OK;0;1;0;2;0;0;0;0;0;1;0;1;0;1;0;1;0;1;0;0;1;0;1;1;1;1;
482;OK;0;1;0;2;0;0;0;0;1;1;0;1;0;1;0;1;0;1;0;0;1;0;1;1;1;1;
483;OK;0;1;0;2;0;0;0;0;0;0;1;1;0;1;0;1;0;1;0;0;1;0;1;1;1;1;
484;OK;0;1;0;2;0;0;0;0;1;0;1;1;0;1;0;1;0;1;0;0;1;0;1;1;1;1;
485;OK;0;1;0;2;0;1;0;0;1;0;1;1;0;1;0;1;0;1;0;0;1;0;1;1;1;1;
486;OK;0;1;0;2;0;0;0;0;0;1;1;1;0;1;0;1;0;1;0;0;1;0;1;1;1;1;
487;OK;0;1;0;2;0;0;0;1;0;1;1;1;0;1;0;1;0;1;0;0;1;0;1;1;1;1;
488;OK;0;1;0;2;0;0;0;0;1;1;1;1;0;1;0;1;0;1;0;0;1;0;1;1;1;1;
489;OK;0;1;0;2;0;1;0;0;1;1;1;1;0;1;0;1;0;1;0;0;1;0;1;1;1;1;
490;OK;0;1;0;2;0;0;0;1;1;1;1;1;0;1;0;1;0;1;0;0;1;0;1;1;1;1;
491;OK;0;1;0;2;0;1;0;1;1;1;1;1;0;1;0;1;0;1;0;0;1;0;1;1;1;1;
492;OK;0;1;0;2;0;0;0;0;0;0;0;1;0;0;1;1;0;1;0;0;1;0;1;1;1;1;
493;OK;0;1;0;2;0;0;0;0;1;0;0;1;0;0;1;1;0;1;0;0;1;0;1;1;1;1;
494;OK;0;1;0;2;0;0;0;0;0;1;0;1;0;0;1;1;0;1;0;0;1;0;1;1;1;1;
495;OK;0;1;0;2;0;0;0;0;1;1;0;1;0;0;1;1;0;1;0;0;1;0;1;1;1;1;
496;OK;0;1;0;2;0;0;0;0;0;0;1;1;0;0;1;1;0;1;0;0;1;0;1;1;1;1;
497;OK;0;1;0;2;0;0;0;0;1;0;1;1;0;0;1;1;0;1;0;0;1;0;1;1;1;1;
498;OK;0;1;0;2;0;1;0;0;1;0;1;1;0;0;1;1;0;1;0;0;1;0;1;1;1;1;
499;OK;0;1;0;2;0;0;0;0;0;1;1;1;0;0;1;1;0;1;0;0;1;0;1;1;1;1;
500;OK;0;1;0;2;0;0;0;1;0;1;1;1;0;0;1;1;0;1;0;0;1;0;1;1;1;1;
501;OK;0;1;0;2;0;0;0;0;1;1;1;1;0;0;1;1;0;1;0;0;1;0;1;1;1;1;
502;OK;0;1;0;2;0;1;0;0;1;1;1;1;0;0;1;1;0;1;0;0;1;0;1;1;1;1;
503;OK;0;1;0;2;0;0;0;1;1;1;1;1;0;0;1;1;0;1;0;0;1;0;1;1;1;1;
504;OK;0;1;0;2;0;1;0;1;1;1;1;1;0;0;1;1;0;1;0;0;1;0;1;1;1;1;
505;OK;0;1;0;2;0;0;0;0;0;0;0;1;0;1;1;1;0;1;0;0;1;0;1;1;1;1;
506;OK;0;1;0;2;0;0;0;0;1;0;0;1;0;1;1;1;0;1;0;0;1;0;1;1;1;1;
507;OK;0;1;0;2;0;0;0;0;0;1;0;1;0;1;1;1;0;1;0;0;1;0;1;1;1;1;
508;OK;0;1;0;2;0;0;0;0;1;1;0;1;0;1;1;1;0;1;0;0;1;0;1;1;1;1;
509;OK;0;1;0;2;0;0;0;0;0;0;1;1;0;1;1;1;0;1;0;0;1;0;1;1;1;1;
510;OK;0;1;0;2;0;0;0;0;1;0;1;1;0;1;1;1;0;1;0;0;1;0;1;1;1;1;
511;OK;0;1;0;2;0;1;0;0;1;0;1;1;0;1;1;1;0;1;0;0;1;0;1;1;1;1;
512;OK;0;1;0;2;0;0;0;0;0;1;1;1;0;1;1;1;0;1;0;0;1;0;1;1;1;1;
513;OK;0;1;0;2;0;0;0;1;0;1;1;1;0;1;1;1;0;1;0;0;1;0;1;1;1;1;
514;OK;0;1;0;2;0;0;0;0;1;1;1;1;0;1;1;1;0;1;0;0;1;0;1;1;1;1;
515;OK;0;1;0;2;0;1;0;0;1;1;1;1;0;1;1;1;0;1;0;0;1;0;1;1;1;1;
516;OK;0;1;0;2;0;0;0;1;1;1;1;1;0;1;1;1;0;1;0;0;1;0;1;1;1;1;
517;OK;0;1;0;2;0;1;0;1;1;1;1;1;0;1;1;1;0;1;0;0;1;0;1;1;1;1;
518;OK;0;1;0;2;0;0;0;0;0;0;0;1;0;0;0;1;0;1;0;0;0;1;1;1;1;1;
519;OK;0;1;0;2;0;0;0;0;1;0;0;1;0;0;0;1;0;1;0;0;0;1;1;1;1;1;
520;OK;0;1;0;2;0;0;0;0;0;1;0;1;0;0;0;1;0;1;0;0;0;1;1;1;1;1;
521;OK;0;1;0;2;0;0;0;0;1;1;0;1;0;0;0;1;0;1;0;0;0;1;1;1;1;1;
522;OK;0;1;0;2;0;0;0;0;0;0;1;1;0;0;0;1;0;1;0;0;0;1;1;1;1;1;
523;OK;0;1;0;2;0;0;0;0;1;0;1;1;0;0;0;1;0;1;0;0;0;1;1;1;1;1;
524;OK;0;1;0;2;0;0;0;0;0;1;1;1;0;0;0;1;0;1;0;0;0;1;1;1;1;1;
525;OK;0;1;0;2;0;0;0;1;0;1;1;1;0;0;0;1;0;1;0;0;0;1;1;1;1;1;
526;OK;0;1;0;2;0;0;0;0;1;1;1;1;0;0;0;1;0;1;0;0;0;1;1;1;1;1;
527;OK;0;1;0;2;0;0;0;1;1;1;1;1;0;0;0;1;0;1;0;0;0;1;1;1;1;1;
528;OK;0;1;0;2;0;0;0;0;0;0;0;1;0;1;0;1;0;1;0;0;0;1;1;1;1;1;
529;OK;0;1;0;2;0;0;0;0;1;0;0;1;0;1;0;1;0;1;0;0;0;1;1;1;1;1;
530;OK;0;1;0;2;0;0;0;0;0;1;0;1;0;1;0;1;0;1;0;0;0;1;1;1;1;1;
531;OK;0;1;0;2;0;0;0;0;1;1;0;1;0;1;0;1;0;1;0;0;0;1;1;1;1;1;
532;OK;0;1;0;2;0;0;0;0;0;0;1;1;0;1;0;1;0;1;0;0;0;1;1;1;1;1;
533;OK;0;1;0;2;0;0;0;0;1;0;1;1;0;1;0;1;0;1;0;0;0;1;1;1;1;1;
534;OK;0;1;0;2;0;1;0;0;1;0;1;1;0;1;0;1;0;1;0;0;0;1;1;1;1;1;
535;OK;0;1;0;2;0;0;0;0;0;1;1;1;0;1;0;1;0;1;0;0;0;1;1;1;1;1;
536;OK;0;1;0;2;0;0;0;1;0;1;1;1;0;1;0;1;0;1;0;0;0;1;1;1;1;1;
537;OK;0;1;0;2;0;0;0;0;1;1;1;1;0;1;0;1;0;1;0;0;0;1;1;1;1;1;
538;OK;0;1;0;2;0;1;0;0;1;1;1;1;0;1;0;1;0;1;0;0;0;1;1;1;1;1;
539;OK;0;1;0;2;0;0;0;1;1;1;1;1;0;1;0;1;0;1;0;0;0;1;1;1;1;1;
540;OK;0;1;0;2;0;1;0;1;1;1;1;1;0;1;0;1;0;1;0;0;0;1;1;1;1;1;
541;OK;0;1;0;2;0;0;0;0;0;0;0;1;0;0;1;1;0;1;0;0;0;1;1;1;1;1;
542;OK;0;1;0;2;0;0;0;0;1;0;0;1;0;0;1;1;0;1;0;0;0;1;1;1;1;1;
543;OK;0;1;0;2;0;0;0;0;0;1;0;1;0;0;1;1;0;1;0;0;0;1;1;1;1;1;
544;OK;0;1;0;2;0;0;0;0;1;1;0;1;0;0;1;1;0;1;0;0;0;1;1;1;1;1;
545;OK;0;1;0;2;0;0;0;0;0;0;1;1;0;0;1;1;0;1;0;0;0;1;1;1;1;1;
546;OK;0;1;0;2;0;0;0;0;1;0;1;1;0;0;1;1;0;1;0;0;0;1;1;1;1;1;
547;OK;0;1;0;2;0;0;0;0;0;1;1;1;0;0;1;1;0;1;0;0;0;1;1;1;1;1;
548;OK;0;1;0;2;0;0;0;1;0;1;1;1;0;0;1;1;0;1;0;0;0;1;1;1;1;1;
549;OK;0;1;0;2;0;0;0;0;1;1;1;1;0;0;1;1;0;1;0;0;0;1;1;1;1;1;
550;OK;0;1;0;2;0;0;0;1;1;1;1;1;0;0;1;1;0;1;0;0;0;1;1;1;1;1;
551;OK;0;1;0;2;0;0;0;0;0;0;0;1;0;1;1;1;0;1;0;0;0;1;1;1;1;1;
552;OK;0;1;0;2;0;0;0;0;1;0;0;1;0;1;1;1;0;1;0;0;0;1;1;1;1;1;
553;OK;0;1;0;2;0;0;0;0;0;1;0;1;0;1;1;1;0;1;0;0;0;1;1;1;1;1;
554;OK;0;1;0;2;0;0;0;0;1;1;0;1;0;1;1;1;0;1;0;0;0;1;1;1;1;1;
555;OK;0;1;0;2;0;0;0;0;0;0;1;1;0;1;1;1;0;1;0;0;0;1;1;1;1;1;
556;OK;0;1;0;2;0;0;0;0;1;0;1;1;0;1;1;1;0;1;0;0;0;1;1;1;1;1;
557;OK;0;1;0;2;0;1;0;0;1;0;1;1;0;1;1;1;0;1;0;0;0;1;1;1;1;1;
558;OK;0;1;0;2;0;0;0;0;0;1;1;1;0;1;1;1;0;1;0;0;0;1;1;1;1;1;
559;OK;0;1;0;2;0;0;0;1;0;1;1;1;0;1;1;1;0;1;0;0;0;1;1;1;1;1;
560;OK;0;1;0;2;0;0;0;0;1;1;1;1;0;1;1;1;0;1;0;0;0;1;1;1;1;1;
561;OK;0;1;0;2;0;1;0;0;1;1;1;1;0;1;1;1;0;1;0;0;0;1;1;1;1;1;
562;OK;0;1;0;2;0;0;0;1;1;1;1;1;0;1;1;1;0;1;0;0;0;1;1;1;1;1;
563;OK;0;1;0;2;0;1;0;1;1;1;1;1;0;1;1;1;0;1;0;0;0;1;1;1;1;1;
564;OK;0;1;0;2;0;0;0;0;0;0;0;1;0;0;0;1;0;1;0;0;1;1;1;1;1;1;
565;OK;0;1;0;2;0;0;0;0;1;0;0;1;0;0;0;1;0;1;0;0;1;1;1;1;1;1;
566;OK;0;1;0;2;0;0;0;0;0;1;0;1;0;0;0;1;0;1;0;0;1;1;1;1;1;1;
567;OK;0;1;0;2;0;0;0;0;1;1;0;1;0;0;0;1;0;1;0;0;1;1;1;1;1;1;
568;OK;0;1;0;2;0;0;0;0;0;0;1;1;0;0;0;1;0;1;0;0;1;1;1;1;1;1;
569;OK;0;1;0;2;0;0;0;0;1;0;1;1;0;0;0;1;0;1;0;0;1;1;1;1;1;1;
570;OK;0;1;0;2;0;0;0;0;0;1;1;1;0;0;0;1;0;1;0;0;1;1;1;1;1;1;
571;OK;0;1;0;2;0;0;0;1;0;1;1;1;0;0;0;1;0;1;0;0;1;1;1;1;1;1;
572;OK;0;1;0;2;0;0;0;0;1;1;1;1;0;0;0;1;0;1;0;0;1;1;1;1;1;1;
573;OK;0;1;0;2;0;0;0;1;1;1;1;1;0;0;0;1;0;1;0;0;1;1;1;1;1;1;
574;OK;0;1;0;2;0;0;0;0;0;0;0;1;0;1;0;1;0;1;0;0;1;1;1;1;1;1;
575;OK;0;1;0;2;0;0;0;0;1;0;0;1;0;1;0;1;0;1;0;0;1;1;1;1;1;1;
576;OK;0;1;0;2;0;0;0;0;0;1;0;1;0;1;0;1;0;1;0;0;1;1;1;1;1;1;
577;OK;0;1;0;2;0;0;0;0;1;1;0;1;0;1;0;1;0;1;0;0;1;1;1;1;1;1;
578;OK;0;1;0;2;0;0;0;0;0;0;1;1;0;1;0;1;0;1;0;0;1;1;1;1;1;1;
579;OK;0;1;0;2;0;0;0;0;1;0;1;1;0;1;0;1;0;1;0;0;1;1;1;1;1;1;
580;OK;0;1;0;2;0;1;0;0;1;0;1;1;0;1;0;1;0;1;0;0;1;1;1;1;1;1;
581;OK;0;1;0;2;0;0;0;0;0;1;1;1;0;1;0;1;0;1;0;0;1;1;1;1;1;1;
582;OK;0;1;0;2;0;0;0;1;0;1;1;1;0;1;0;1;0;1;0;0;1;1;1;1;1;1;
583;OK;0;1;0;2;0;0;0;0;1;1;1;1;0;1;0;1;0;1;0;0;1;1;1;1;1;1;
584;OK;0;1;0;2;0;1;0;0;1;1;1;1;0;1;0;1;0;1;0;0;1;1;1;1;1;1;
585;OK;0;1;0;2;0;0;0;1;1;1;1;1;0;1;0;1;0;1;0;0;1;1;1;1;1;1;
586;OK;0;1;0;2;0;1;0;1;1;1;1;1;0;1;0;1;0;1;0;0;1;1;1;1;1;1;
587;OK;0;1;0;2;0;0;0;0;0;0;0;1;0;0;1;1;0;1;0;0;1;1;1;1;1;1;
588;OK;0;1;0;2;0;0;0;0;1;0;0;1;0;0;1;1;0;1;0;0;1;1;1;1;1;1;
589;OK;0;1;0;2;0;0;0;0;0;1;0;1;0;0;1;1;0;1;0;0;1;1;1;1;1;1;
590;OK;0;1;0;2;0;0;0;0;1;1;0;1;0;0;1;1;0;1;0;0;1;1;1;1;1;1;
591;OK;0;1;0;2;0;0;0;0;0;0;1;1;0;0;1;1;0;1;0;0;1;1;1;1;1;1;
592;OK;0;1;0;2;0;0;0;0;1;0;1;1;0;0;1;1;0;1;0;0;1;1;1;1;1;1;
593;OK;0;1;0;2;0;0;0;0;0;1;1;1;0;0;1;1;0;1;0;0;1;1;1;1;1;1;
594;OK;0;1;0;2;0;0;0;1;0;1;1;1;0;0;1;1;0;1;0;0;1;1;1;1;1;1;
595;OK;0;1;0;2;0;0;0;0;1;1;1;1;0;0;1;1;0;1;0;0;1;1;1;1;1;1;
596;OK;0;1;0;2;0;0;0;1;1;1;1;1;0;0;1;1;0;1;0;0;1;1;1;1;1;1;
597;OK;0;1;0;2;0;0;0;0;0;0;0;1;0;1;1;1;0;1;0;0;1;1;1;1;1;1;
598;OK;0;1;0;2;0;0;0;0;1;0;0;1;0;1;1;1;0;1;0;0;1;1;1;1;1;1;
599;OK;0;1;0;2;0;0;0;0;0;1;0;1;0;1;1;1;0;1;0;0;1;1;1;1;1;1;
600;OK;0;1;0;2;0;0;0;0;1;1;0;1;0;1;1;1;0;1;0;0;1;1;1;1;1;1;
601;OK;0;1;0;2;0;0;0;0;0;0;1;1;0;1;1;1;0;1;0;0;1;1;1;1;1;1;
602;OK;0;1;0;2;0;0;0;0;1;0;1;1;0;1;1;1;0;1;0;0;1;1;1;1;1;1;
603;OK;0;1;0;2;0;1;0;0;1;0;1;1;0;1;1;1;0;1;0;0;1;1;1;1;1;1;
604;OK;0;1;0;2;0;0;0;0;0;1;1;1;0;1;1;1;0;1;0;0;1;1;1;1;1;1;
605;OK;0;1;0;2;0;0;0;1;0;1;1;1;0;1;1;1;0;1;0;0;1;1;1;1;1;1;
606;OK;0;1;0;2;0;0;0;0;1;1;1;1;0;1;1;1;0;1;0;0;1;1;1;1;1;1;
607;OK;0;1;0;2;0;1;0;0;1;1;1;1;0;1;1;1;0;1;0;0;1;1;1;1;1;1;
608;OK;0;1;0;2;0;0;0;1;1;1;1;1;0;1;1;1;0;1;0;0;1;1;1;1;1;1;
609;OK;0;1;0;2;0;1;0;1;1;1;1;1;0;1;1;1;0;1;0;0;1;1;1;1;1;1;
610;KO;0;1;0;2;0;0;0;0;0;0;0;1;0;0;1;1;0;1;0;0;0;0;0;0;0;1;"[phicyclic]"
611;KO;0;1;0;2;0;0;0;0;1;0;0;1;0;0;1;1;0;1;0;0;0;0;0;0;0;1;"[phicyclic]"
612;KO;0;1;0;2;0;0;0;0;0;0;1;1;0;0;1;1;0;1;0;0;0;0;0;0;0;1;"[phicyclic]"
613;KO;0;1;0;2;0;0;0;0;1;0;1;1;0;0;1;1;0;1;0;0;0;0;0;0;0;1;"[phicyclic]"
614;KO;0;1;0;2;0;1;0;0;1;0;1;1;0;0;1;1;0;1;0;0;0;0;0;0;0;1;"[phicyclic]"
615;KO;0;1;0;2;0;0;0;0;0;0;0;1;0;1;1;1;0;1;0;0;0;0;0;0;0;1;"[phicyclic]"
616;KO;0;1;0;2;0;0;0;0;1;0;0;1;0;1;1;1;0;1;0;0;0;0;0;0;0;1;"[phicyclic]"
617;KO;0;1;0;2;0;0;0;0;0;0;1;1;0;1;1;1;0;1;0;0;0;0;0;0;0;1;"[phicyclic]"
618;KO;0;1;0;2;0;0;0;0;1;0;1;1;0;1;1;1;0;1;0;0;0;0;0;0;0;1;"[phicyclic]"
619;KO;0;1;0;2;0;1;0;0;1;0;1;1;0;1;1;1;0;1;0;0;0;0;0;0;0;1;"[phicyclic]"
620;KO;0;1;0;2;0;0;0;0;0;0;0;1;0;0;1;1;0;1;0;0;0;0;0;1;0;1;"[phicyclic]"
621;KO;0;1;0;2;0;0;0;0;1;0;0;1;0;0;1;1;0;1;0;0;0;0;0;1;0;1;"[phicyclic]"
622;KO;0;1;0;2;0;0;0;0;0;0;1;1;0;0;1;1;0;1;0;0;0;0;0;1;0;1;"[phicyclic]"
623;KO;0;1;0;2;0;0;0;0;1;0;1;1;0;0;1;1;0;1;0;0;0;0;0;1;0;1;"[phicyclic]"
624;KO;0;1;0;2;0;1;0;0;1;0;1;1;0;0;1;1;0;1;0;0;0;0;0;1;0;1;"[phicyclic]"
625;KO;0;1;0;2;0;0;0;0;0;0;0;1;0;1;1;1;0;1;0;0;0;0;0;1;0;1;"[phicyclic]"
626;KO;0;1;0;2;0;0;0;0;1;0;0;1;0;1;1;1;0;1;0;0;0;0;0;1;0;1;"[phicyclic]"
627;KO;0;1;0;2;0;0;0;0;0;0;1;1;0;1;1;1;0;1;0;0;0;0;0;1;0;1;"[phicyclic]"
628;KO;0;1;0;2;0;0;0;0;1;0;1;1;0;1;1;1;0;1;0;0;0;0;0;1;0;1;"[phicyclic]"
629;KO;0;1;0;2;0;1;0;0;1;0;1;1;0;1;1;1;0;1;0;0;0;0;0;1;0;1;"[phicyclic]"
630;KO;0;1;0;2;0;0;0;0;0;0;0;1;0;0;1;1;0;1;0;0;0;0;0;0;1;1;"[phicyclic]"
631;KO;0;1;0;2;0;0;0;0;1;0;0;1;0;0;1;1;0;1;0;0;0;0;0;0;1;1;"[phicyclic]"
632;KO;0;1;0;2;0;0;0;0;0;0;1;1;0;0;1;1;0;1;0;0;0;0;0;0;1;1;"[phicyclic]"
633;KO;0;1;0;2;0;0;0;0;1;0;1;1;0;0;1;1;0;1;0;0;0;0;0;0;1;1;"[phicyclic]"
634;KO;0;1;0;2;0;1;0;0;1;0;1;1;0;0;1;1;0;1;0;0;0;0;0;0;1;1;"[phicyclic]"
635;KO;0;1;0;2;0;0;0;0;0;0;0;1;0;1;1;1;0;1;0;0;0;0;0;0;1;1;"[phicyclic]"
636;KO;0;1;0;2;0;0;0;0;1;0;0;1;0;1;1;1;0;1;0;0;0;0;0;0;1;1;"[phicyclic]"
637;KO;0;1;0;2;0;0;0;0;0;0;1;1;0;1;1;1;0;1;0;0;0;0;0;0;1;1;"[phicyclic]"
638;KO;0;1;0;2;0;0;0;0;1;0;1;1;0;1;1;1;0;1;0;0;0;0;0;0;1;1;"[phicyclic]"
639;KO;0;1;0;2;0;1;0;0;1;0;1;1;0;1;1;1;0;1;0;0;0;0;0;0;1;1;"[phicyclic]"
640;KO;0;1;0;2;0;0;0;0;0;0;0;1;0;0;1;1;0;1;0;0;0;0;0;1;1;1;"[phicyclic]"
641;KO;0;1;0;2;0;0;0;0;1;0;0;1;0;0;1;1;0;1;0;0;0;0;0;1;1;1;"[phicyclic]"
642;KO;0;1;0;2;0;0;0;0;0;0;1;1;0;0;1;1;0;1;0;0;0;0;0;1;1;1;"[phicyclic]"
643;KO;0;1;0;2;0;0;0;0;1;0;1;1;0;0;1;1;0;1;0;0;0;0;0;1;1;1;"[phicyclic]"
644;KO;0;1;0;2;0;1;0;0;1;0;1;1;0;0;1;1;0;1;0;0;0;0;0;1;1;1;"[phicyclic]"
645;KO;0;1;0;2;0;0;0;0;0;0;0;1;0;1;1;1;0;1;0;0;0;0;0;1;1;1;"[phicyclic]"
646;KO;0;1;0;2;0;0;0;0;1;0;0;1;0;1;1;1;0;1;0;0;0;0;0;1;1;1;"[phicyclic]"
647;KO;0;1;0;2;0;0;0;0;0;0;1;1;0;1;1;1;0;1;0;0;0;0;0;1;1;1;"[phicyclic]"
648;KO;0;1;0;2;0;0;0;0;1;0;1;1;0;1;1;1;0;1;0;0;0;0;0;1;1;1;"[phicyclic]"
649;KO;0;1;0;2;0;1;0;0;1;0;1;1;0;1;1;1;0;1;0;0;0;0;0;1;1;1;"[phicyclic]"
650;KO;0;1;0;2;0;1;0;0;1;0;1;1;0;0;0;1;0;1;0;0;0;1;0;1;1;1;"[phicyclic]"
651;KO;0;1;0;2;0;1;0;0;1;1;1;1;0;0;0;1;0;1;0;0;0;1;0;1;1;1;"[phicyclic]"
652;KO;0;1;0;2;0;1;0;1;1;1;1;1;0;0;0;1;0;1;0;0;0;1;0;1;1;1;"[phicyclic]"
653;KO;0;1;0;2;0;0;0;0;0;0;0;1;0;0;1;1;0;1;0;0;0;1;0;1;1;1;"[phicyclic]"
654;KO;0;1;0;2;0;0;0;0;1;0;0;1;0;0;1;1;0;1;0;0;0;1;0;1;1;1;"[phicyclic]"
655;KO;0;1;0;2;0;0;0;0;0;0;1;1;0;0;1;1;0;1;0;0;0;1;0;1;1;1;"[phicyclic]"
656;KO;0;1;0;2;0;0;0;0;1;0;1;1;0;0;1;1;0;1;0;0;0;1;0;1;1;1;"[phicyclic]"
657;KO;0;1;0;2;0;1;0;0;1;0;1;1;0;0;1;1;0;1;0;0;0;1;0;1;1;1;"[phicyclic]"
658;KO;0;1;0;2;0;1;0;0;1;1;1;1;0;0;1;1;0;1;0;0;0;1;0;1;1;1;"[phicyclic]"
659;KO;0;1;0;2;0;1;0;1;1;1;1;1;0;0;1;1;0;1;0;0;0;1;0;1;1;1;"[phicyclic]"
660;KO;0;1;0;2;0;0;0;0;0;0;0;1;0;1;1;1;0;1;0;0;0;1;0;1;1;1;"[phicyclic]"
661;KO;0;1;0;2;0;0;0;0;1;0;0;1;0;1;1;1;0;1;0;0;0;1;0;1;1;1;"[phicyclic]"
662;KO;0;1;0;2;0;0;0;0;0;0;1;1;0;1;1;1;0;1;0;0;0;1;0;1;1;1;"[phicyclic]"
663;KO;0;1;0;2;0;0;0;0;1;0;1;1;0;1;1;1;0;1;0;0;0;1;0;1;1;1;"[phicyclic]"
664;KO;0;1;0;2;0;1;0;0;1;0;1;1;0;1;1;1;0;1;0;0;0;1;0;1;1;1;"[phicyclic]"
665;KO;0;1;0;2;0;1;0;0;1;0;1;1;0;0;0;1;0;1;0;0;0;1;1;1;1;1;"[phicyclic]"
666;KO;0;1;0;2;0;1;0;0;1;1;1;1;0;0;0;1;0;1;0;0;0;1;1;1;1;1;"[phicyclic]"
667;KO;0;1;0;2;0;1;0;1;1;1;1;1;0;0;0;1;0;1;0;0;0;1;1;1;1;1;"[phicyclic]"
668;KO;0;1;0;2;0;1;0;0;1;0;1;1;0;0;1;1;0;1;0;0;0;1;1;1;1;1;"[phicyclic]"
669;KO;0;1;0;2;0;1;0;0;1;1;1;1;0;0;1;1;0;1;0;0;0;1;1;1;1;1;"[phicyclic]"
670;KO;0;1;0;2;0;1;0;1;1;1;1;1;0;0;1;1;0;1;0;0;0;1;1;1;1;1;"[phicyclic]"
671;KO;0;1;0;2;0;1;0;0;1;0;1;1;0;0;0;1;0;1;0;0;1;1;1;1;1;1;"[phicyclic]"
672;KO;0;1;0;2;0;1;0;0;1;1;1;1;0;0;0;1;0;1;0;0;1;1;1;1;1;1;"[phicyclic]"
673;KO;0;1;0;2;0;1;0;1;1;1;1;1;0;0;0;1;0;1;0;0;1;1;1;1;1;1;"[phicyclic]"
674;KO;0;1;0;2;0;1;0;0;1;0;1;1;0;0;1;1;0;1;0;0;1;1;1;1;1;1;"[phicyclic]"
675;KO;0;1;0;2;0;1;0;0;1;1;1;1;0;0;1;1;0;1;0;0;1;1;1;1;1;1;"[phicyclic]"
676;KO;0;1;0;2;0;1;0;1;1;1;1;1;0;0;1;1;0;1;0;0;1;1;1;1;1;1;"[phicyclic]"
