
VAR

sk = 0 2 ;
a = 0 1 ;
b = 0 1 ;
ep = 0 1 ;
en = 0 1 ;

REG

sk_act1 [(sk>=1)]=> sk ;
a_ini_sk [(!(a>=1))]=> sk ;
sk_act2 [(sk>=2)]=> a ;
b_ini [(!(b>=1))]=> a ;
en_ini [(!(en>=1))]=> a ;
a_act [(a>=1)]=> b ;
m [(!((en>=1)|((en>=1)&(ep>=1))))]=> b ;
b_act [(b>=1)]=> ep ;
sk_ini [(!(sk>=1))]=> en ;
a_ini_en [(!(a>=1))]=> en ;
ep_act [(ep>=1)]=> en ;

PARA

# Parameters for sk

K_sk = 0..2;
K_sk:a_ini_sk = 1..2;
K_sk:sk_act1 = 0;
K_sk:a_ini_sk:sk_act1 = 2;

# Parameters for a

K_a = 0..1;
K_a:b_ini = 0..1;
K_a:en_ini = 0;
K_a:sk_act2 = 0..1;
K_a:b_ini:en_ini = 0..1;
K_a:en_ini:sk_act2 = 0..1;
K_a:b_ini:sk_act2 = 0..1;
K_a:b_ini:en_ini:sk_act2 = 1;

# Parameters for b

K_b = 0;
K_b:a_act = 0..1;
K_b:m = 0..1;
K_b:a_act:m = 1;

# Parameters for ep

K_ep = 0;
K_ep:b_act = 1;

# Parameters for en

K_en = 0..1;
K_en:a_ini_en = 0;
K_en:ep_act = 0..1;
K_en:sk_ini = 0..1;
K_en:a_ini_en:ep_act = 0..1;
K_en:ep_act:sk_ini = 0..1;
K_en:a_ini_en:sk_ini = 0..1;
K_en:a_ini_en:ep_act:sk_ini = 1;

NO CTL FORMULA
FAIRCTL
[((((((sk=0)&(ep=0))&(a=0))&(b=0))&(en=1))->AX(AF((((((sk=0)&(ep=0))&(a=0))&(b=0))&(en=1))))),
]

HOARE
Result of Hoare triple is:
    Set of formulas: [(K_ep<1), (K_b<1), (K_en:a_ini_en:ep_act:sk_ini>0), (K_ep:b_act>0), (K_a:en_ini<1), (K_ep<1), (K_b<1), (K_en:a_ini_en:ep_act:sk_ini>0), (K_a:en_ini<1), (K_ep:b_act>0), (K_sk:sk_act1<1), (K_sk:sk_act1<2), (K_b:a_act:m>0), (K_ep<1), (K_b<1), (K_en:a_ini_en:ep_act:sk_ini>0), (K_ep:b_act>0), (K_a:en_ini<1), (K_ep<1), (K_b<1), (K_en:a_ini_en:ep_act:sk_ini>0), (K_a:en_ini<1), (K_ep:b_act>0), (K_sk:sk_act1<1), (K_b:a_act:m>0), (K_sk:sk_act1<2), (K_ep<1), (K_b<1), (K_en:a_ini_en:ep_act:sk_ini>0), (K_ep:b_act>0), (K_a:en_ini<1), (K_ep<1), (K_b<1), (K_en:a_ini_en:ep_act:sk_ini>0), (K_a:en_ini<1), (K_ep:b_act>0), (K_b:a_act:m>0), (K_sk:sk_act1<1), (K_sk:sk_act1<2), (K_a:b_ini:en_ini:sk_act2>0), (K_sk:a_ini_sk:sk_act1>1), (K_en:a_ini_en<1), (K_ep<1), (K_b<1), (K_en:a_ini_en:ep_act:sk_ini>0), (K_ep:b_act>0), (K_a:en_ini<1), (K_ep<1), (K_b<1), (K_en:a_ini_en:ep_act:sk_ini>0), (K_a:en_ini<1), (K_ep:b_act>0), (K_sk:sk_act1<1), (K_sk:sk_act1<2), (K_b:a_act:m>0), (K_ep<1), (K_b<1), (K_en:a_ini_en:ep_act:sk_ini>0), (K_ep:b_act>0), (K_a:en_ini<1), (K_ep<1), (K_b<1), (K_en:a_ini_en:ep_act:sk_ini>0), (K_a:en_ini<1), (K_ep:b_act>0), (K_sk:sk_act1<1), (K_b:a_act:m>0), (K_sk:sk_act1<2), (K_ep<1), (K_b<1), (K_en:a_ini_en:ep_act:sk_ini>0), (K_ep:b_act>0), (K_a:en_ini<1), (K_ep<1), (K_b<1), (K_en:a_ini_en:ep_act:sk_ini>0), (K_a:en_ini<1), (K_ep:b_act>0), (K_b:a_act:m>0), (K_sk:sk_act1<1), (K_sk:sk_act1<2), (K_a:b_ini:en_ini:sk_act2>0), (K_en:a_ini_en<1), (K_sk:a_ini_sk:sk_act1>1), (K_sk:a_ini_sk>0)]
    Hoare result is a conjunction of conditions on K, it has been used to reduced parameters bounds
    100124 models have been removed

======================
# Number of effective parameterizations : 676
======================




########### Result of model checking ###########
# Total number of models 676
# Selected models: 609
# Computation time: 5s707ms

Models have been written in ./2_Experiment.csv

