
VAR

in_oxyg = 1 (ENV_VAR) ;
glc = 2 (ENV_VAR) ;
in_aa = 2 (ENV_VAR) ;
in_ag = 1 (ENV_VAR) ;
atp = 0 2 ;
oxyg = 0 1 ;
glyc = 0 2 ;
bnl = 0 1 ;
bl = 0 1 ;
dnc = 0 2 ;
ferm = 0 1 ;
nadh = 0 2 ;
krebs = 0 2 ;
phox = 0 1 ;
ros = 0 2 ;

REG

phoxa [(phox>=1)]=> atp ;
nopla [(!(bl>=1))]=> atp ;
glyc1 [(glyc>=1)]=> atp ;
glyc2 [(glyc>=2)]=> atp ;
noprola [(!(bnl>=1))]=> atp ;
oxygi [(in_oxyg>=1)]=> oxyg ;
phoxo [(!(phox>=1))]=> oxyg ;
cof [((!(atp>=2))&(!(nadh>=2)))]=> glyc ;
nopfk [(!((krebs>=2)&(atp>=1)))]=> glyc ;
glc2 [(glc>=2)]=> glyc ;
glc1 [(glc>=1)]=> glyc ;
aas [(((dnc>=2)&(atp>=1))&(nadh>=2))]=> bnl ;
ppp [(((glyc>=1)&(atp>=1))&(dnc>=1))]=> bnl ;
ls [((atp>=1)&(((krebs>=2)|(dnc>=2))|(in_ag>=1)))]=> bl ;
nobox [(!(((bl>=1)&(!(glyc>=1)))&(!(atp>=1))))]=> bl ;
krebsd [(!(krebs>=2))]=> dnc ;
inaa1 [(in_aa>=1)]=> dnc ;
inaa2 [(in_aa>=2)]=> dnc ;
ep [((((glyc>=1)&(!(oxyg>=1)))|(glyc>=2))&(nadh>=2))]=> ferm ;
gpdh [(glyc>=1)]=> nadh ;
noaas [(!(((dnc>=2)&(atp>=1))&(nadh>=2)))]=> nadh ;
krebsn [(krebs>=1)]=> nadh ;
phoxn [(!(phox>=1))]=> nadh ;
fermn [(!(ferm>=1))]=> nadh ;
got1 [((dnc>=1)&(((in_aa>=2)&(glc>=2))&(in_ag>=1)))]=> nadh ;
pnh [((glyc>=1)&(oxyg>=1))]=> krebs ;
sat [((oxyg>=1)&(((glyc>=1)&(dnc>=2))|(glyc>=2)))]=> krebs ;
box [(((bl>=1)&(!(glyc>=1)))&(!(atp>=1)))]=> krebs ;
pc [(((nadh>=2)&(oxyg>=1))&(!(atp>=2)))]=> phox ;
noglut [(!((((dnc>=2)|(in_aa>=2))&(atp>=1))&(nadh>=1)))]=> ros ;
nox [(((phox>=1)|(nadh>=1))&(((in_aa>=2)&(glc>=2))&(in_ag>=1)))]=> ros ;
nogot1 [(!((dnc>=1)&(((in_aa>=2)&(glc>=2))&(in_ag>=1))))]=> ros ;

PARA

# Parameters for atp

K_atp = 0;
K_atp:glyc1 = 0;
K_atp:nopla = 0;
K_atp:noprola = 0;
K_atp:phoxa = 1;
K_atp:glyc1:phoxa = 1;
K_atp:glyc1:glyc2 = 1;
K_atp:nopla:noprola = 0;
K_atp:nopla:phoxa = 1;
K_atp:glyc1:nopla = 1;
K_atp:noprola:phoxa = 1;
K_atp:glyc1:noprola = 0;
K_atp:glyc1:glyc2:nopla = 1;
K_atp:glyc1:nopla:noprola = 2;
K_atp:nopla:noprola:phoxa = 2;
K_atp:glyc1:nopla:phoxa = 1;
K_atp:glyc1:glyc2:noprola = 1;
K_atp:glyc1:noprola:phoxa = 1;
K_atp:glyc1:glyc2:phoxa = 1;
K_atp:glyc1:nopla:noprola:phoxa = 2;
K_atp:glyc1:glyc2:nopla:phoxa = 1;
K_atp:glyc1:glyc2:nopla:noprola = 2;
K_atp:glyc1:glyc2:noprola:phoxa = 1;
K_atp:glyc1:glyc2:nopla:noprola:phoxa = 2;

# Parameters for oxyg

K_oxyg:oxygi = 1;
K_oxyg:oxygi:phoxo = 1;

# Parameters for glyc

K_glyc:glc1:glc2 = 0;
K_glyc:cof:glc1:glc2 = 1;
K_glyc:glc1:glc2:nopfk = 0;
K_glyc:cof:glc1:glc2:nopfk = 2;

# Parameters for bnl

K_bnl = 0;
K_bnl:aas = 1;
K_bnl:ppp = 1;
K_bnl:aas:ppp = 1;

# Parameters for bl

K_bl = 0;
K_bl:nobox = 0;
K_bl:ls:nobox = 1;

# Parameters for dnc

K_dnc:inaa1:inaa2 = 2;
K_dnc:inaa1:inaa2:krebsd = 2;

# Parameters for ferm

K_ferm = 0;
K_ferm:ep = 1;

# Parameters for nadh

K_nadh:got1 = 1;
K_nadh:noaas = 0;
K_nadh:fermn:got1 = 1;
K_nadh:got1:gpdh = 1;
K_nadh:got1:krebsn = 1;
K_nadh:got1:noaas = 1;
K_nadh:got1:phoxn = 1;
K_nadh:gpdh:noaas = 0;
K_nadh:krebsn:noaas = 0;
K_nadh:fermn:noaas = 0;
K_nadh:noaas:phoxn = 0;
K_nadh:got1:gpdh:krebsn = 1;
K_nadh:got1:gpdh:noaas = 1;
K_nadh:got1:gpdh:phoxn = 1;
K_nadh:fermn:got1:phoxn = 1;
K_nadh:got1:krebsn:noaas = 1;
K_nadh:got1:krebsn:phoxn = 1;
K_nadh:fermn:gpdh:noaas = 0;
K_nadh:got1:noaas:phoxn = 1;
K_nadh:fermn:krebsn:noaas = 0;
K_nadh:gpdh:krebsn:noaas = 0;
K_nadh:fermn:got1:gpdh = 1;
K_nadh:gpdh:noaas:phoxn = 0;
K_nadh:fermn:noaas:phoxn = 0;
K_nadh:krebsn:noaas:phoxn = 2;
K_nadh:fermn:got1:krebsn = 1;
K_nadh:fermn:got1:noaas = 1;
K_nadh:fermn:krebsn:noaas:phoxn = 2;
K_nadh:got1:krebsn:noaas:phoxn = 2;
K_nadh:fermn:got1:krebsn:phoxn = 1;
K_nadh:fermn:got1:gpdh:noaas = 1;
K_nadh:fermn:got1:noaas:phoxn = 1;
K_nadh:fermn:got1:gpdh:phoxn = 2;
K_nadh:fermn:gpdh:krebsn:noaas = 2;
K_nadh:gpdh:krebsn:noaas:phoxn = 2;
K_nadh:got1:gpdh:krebsn:noaas = 1;
K_nadh:got1:gpdh:krebsn:phoxn = 1;
K_nadh:fermn:got1:gpdh:krebsn = 1;
K_nadh:got1:gpdh:noaas:phoxn = 1;
K_nadh:fermn:gpdh:noaas:phoxn = 2;
K_nadh:fermn:got1:krebsn:noaas = 1;
K_nadh:fermn:got1:gpdh:noaas:phoxn = 2;
K_nadh:fermn:got1:krebsn:noaas:phoxn = 2;
K_nadh:fermn:got1:gpdh:krebsn:phoxn = 2;
K_nadh:fermn:gpdh:krebsn:noaas:phoxn = 2;
K_nadh:got1:gpdh:krebsn:noaas:phoxn = 2;
K_nadh:fermn:got1:gpdh:krebsn:noaas = 2;
K_nadh:fermn:got1:gpdh:krebsn:noaas:phoxn = 2;

# Parameters for krebs

K_krebs = 0;
K_krebs:box = 0;
K_krebs:pnh = 1;
K_krebs:pnh:sat = 2;

# Parameters for phox

K_phox = 0;
K_phox:pc = 1;

# Parameters for ros

K_ros:noglut = 0;
K_ros:nox = 1;
K_ros:noglut:nox = 1;
K_ros:nogot1:nox = 1;
K_ros:noglut:nogot1 = 0;
K_ros:noglut:nogot1:nox = 2;

NO CTL FORMULA
FAIRCTL
[(((((in_oxyg=1)&(glc=2))&(in_aa=2))&(in_ag=1))->AF(AG((bl=0)))),
]

======================
# Number of effective parameterizations : 1
======================



########### Result of model checking ###########
# Total number of models 1
# Selected models: 0
# Computation time: 88ms
################################################


########## KO models #########

KO Model #1
   K_atp : 0
   K_atp:glyc1 : 0
   K_atp:nopla : 0
   K_atp:noprola : 0
   K_atp:phoxa : 1
   K_atp:glyc1:phoxa : 1
   K_atp:glyc1:glyc2 : 1
   K_atp:nopla:noprola : 0
   K_atp:nopla:phoxa : 1
   K_atp:glyc1:nopla : 1
   K_atp:noprola:phoxa : 1
   K_atp:glyc1:noprola : 0
   K_atp:glyc1:glyc2:nopla : 1
   K_atp:glyc1:nopla:noprola : 2
   K_atp:nopla:noprola:phoxa : 2
   K_atp:glyc1:nopla:phoxa : 1
   K_atp:glyc1:glyc2:noprola : 1
   K_atp:glyc1:noprola:phoxa : 1
   K_atp:glyc1:glyc2:phoxa : 1
   K_atp:glyc1:nopla:noprola:phoxa : 2
   K_atp:glyc1:glyc2:nopla:phoxa : 1
   K_atp:glyc1:glyc2:nopla:noprola : 2
   K_atp:glyc1:glyc2:noprola:phoxa : 1
   K_atp:glyc1:glyc2:nopla:noprola:phoxa : 2
   K_oxyg:oxygi : 1
   K_oxyg:oxygi:phoxo : 1
   K_glyc:glc1:glc2 : 0
   K_glyc:cof:glc1:glc2 : 1
   K_glyc:glc1:glc2:nopfk : 0
   K_glyc:cof:glc1:glc2:nopfk : 2
   K_bnl : 0
   K_bnl:aas : 1
   K_bnl:ppp : 1
   K_bnl:aas:ppp : 1
   K_bl : 0
   K_bl:nobox : 0
   K_bl:ls:nobox : 1
   K_dnc:inaa1:inaa2 : 2
   K_dnc:inaa1:inaa2:krebsd : 2
   K_ferm : 0
   K_ferm:ep : 1
   K_nadh:got1 : 0
   K_nadh:noaas : 0
   K_nadh:fermn:got1 : 0
   K_nadh:got1:gpdh : 0
   K_nadh:got1:krebsn : 0
   K_nadh:got1:noaas : 1
   K_nadh:got1:phoxn : 0
   K_nadh:gpdh:noaas : 0
   K_nadh:krebsn:noaas : 0
   K_nadh:fermn:noaas : 0
   K_nadh:noaas:phoxn : 0
   K_nadh:got1:gpdh:krebsn : 0
   K_nadh:got1:gpdh:noaas : 1
   K_nadh:got1:gpdh:phoxn : 0
   K_nadh:fermn:got1:phoxn : 0
   K_nadh:got1:krebsn:noaas : 1
   K_nadh:got1:krebsn:phoxn : 0
   K_nadh:fermn:gpdh:noaas : 0
   K_nadh:got1:noaas:phoxn : 1
   K_nadh:fermn:krebsn:noaas : 0
   K_nadh:gpdh:krebsn:noaas : 0
   K_nadh:fermn:got1:gpdh : 0
   K_nadh:gpdh:noaas:phoxn : 0
   K_nadh:fermn:noaas:phoxn : 0
   K_nadh:krebsn:noaas:phoxn : 2
   K_nadh:fermn:got1:krebsn : 0
   K_nadh:fermn:got1:noaas : 1
   K_nadh:fermn:krebsn:noaas:phoxn : 2
   K_nadh:got1:krebsn:noaas:phoxn : 2
   K_nadh:fermn:got1:krebsn:phoxn : 0
   K_nadh:fermn:got1:gpdh:noaas : 1
   K_nadh:fermn:got1:noaas:phoxn : 1
   K_nadh:fermn:got1:gpdh:phoxn : 2
   K_nadh:fermn:gpdh:krebsn:noaas : 2
   K_nadh:gpdh:krebsn:noaas:phoxn : 2
   K_nadh:got1:gpdh:krebsn:noaas : 1
   K_nadh:got1:gpdh:krebsn:phoxn : 0
   K_nadh:fermn:got1:gpdh:krebsn : 0
   K_nadh:got1:gpdh:noaas:phoxn : 1
   K_nadh:fermn:gpdh:noaas:phoxn : 2
   K_nadh:fermn:got1:krebsn:noaas : 1
   K_nadh:fermn:got1:gpdh:noaas:phoxn : 2
   K_nadh:fermn:got1:krebsn:noaas:phoxn : 2
   K_nadh:fermn:got1:gpdh:krebsn:phoxn : 2
   K_nadh:fermn:gpdh:krebsn:noaas:phoxn : 2
   K_nadh:got1:gpdh:krebsn:noaas:phoxn : 2
   K_nadh:fermn:got1:gpdh:krebsn:noaas : 2
   K_nadh:fermn:got1:gpdh:krebsn:noaas:phoxn : 2
   K_krebs : 0
   K_krebs:box : 0
   K_krebs:pnh : 1
   K_krebs:pnh:sat : 2
   K_phox : 0
   K_phox:pc : 1
   K_ros:noglut : 0
   K_ros:nox : 1
   K_ros:noglut:nox : 1
   K_ros:nogot1:nox : 1
   K_ros:noglut:nogot1 : 0
   K_ros:noglut:nogot1:nox : 2

