
VAR

operon = 0 2 (self reg) ;
mucuB = 0 1 ;

REG

free [(!(mucuB>=1))]=>
 operon
 ;
alg [(operon>=1)]=>
 operon
 ;
prod [(operon>=1)]=>
 mucuB
 ;

PARA

# Parameters for operon

# domains
K_operon = 0..2;   #  {[0](1~2)} 
K_operon:alg = 0..2;   #  {(0)[1][2]} 
K_operon:free = 0..2;   #  {[0](1~2)} 
K_operon:alg:free = 0..2;   #  {(0)[1][2]} 

# Snoussi useful constraints for operon:
K_operon <= K_operon:alg; K_operon <= K_operon:free; K_operon:alg <= K_operon:alg:free; K_operon:free <= K_operon:alg:free; 

# Parameters for mucuB

# domains
K_mucuB = 0..1;   #  {[0][1]} 
K_mucuB:prod = 0..1;   #  {[0][1]} 

# Snoussi useful constraints for mucuB:
K_mucuB <= K_mucuB:prod; 

CTL
[
((operon=0)->AG((!(operon=2)))),
((operon=2)->AG((!(operon=0)))),
]
NO FAIRCTL FORMULA

======================
# Number of effective parameterizations : 42
======================




########### Result of model checking ###########
# Total number of models: 42
# Number of OK models in csv file 9
# Selected models: 9
# Computation time: 62ms
Models have been written in examples/mucusOperon/mucusOperon-from.csv and examples/mucusOperon/mucusOperon-from-MDD.csv
################################################

