Hoare removed model: {K_operon:alg=0, K_mucuB=0, K_mucuB:prod=0, K_operon=0, K_operon:alg:free=2, K_operon:free=0}
Hoare removed model: {K_operon:alg=2, K_mucuB=0, K_mucuB:prod=0, K_operon=0, K_operon:alg:free=2, K_operon:free=0}
Hoare removed model: {K_operon:alg=0, K_mucuB=0, K_mucuB:prod=0, K_operon=0, K_operon:alg:free=2, K_operon:free=1}
Hoare removed model: {K_operon:alg=2, K_mucuB=0, K_mucuB:prod=0, K_operon=0, K_operon:alg:free=2, K_operon:free=1}


########### Result of model checking ###########
# Total number of models: 42
# Number of OK models in csv file 9
# Number of models removed using Hoare: 4
# Selected models: 3
# Computation time: 36ms
Models have been written in examples/mucusOperon/mucusOperonHoareExist-from.csv
################################################

