in_oxyg-env,glc-env,in_aa-env,in_ag-env,atp-2,bnl-1,bl-1,ferm-1,krebs-2,phox-1
0,0,0,1,0,0,0,0,0,0
0,1,0,1,Osc(0-2),0,Osc(0-1),Osc(0-1),0,0
1,1,1,1,Osc(0-2),Osc(0-1),Osc(0-1),0,Osc(0-1),Osc(0-1)
1,2,2,1,Osc(0-2),Osc(0-1),Osc(0-1),Osc(0-1),Osc(0-2),Osc(0-1)
