{"result":[{"blocktype" : "env_var", "value" : {"count" : 1 , "data" : [{ "id" : "h", "val" : 0}]}},{"blocktype": "var" , "value" : {"count" : 3 , "data" : [{ "id" : "j", "min" : 0, "max" : 1},{ "id" : "r", "min" : 0, "max" : 1},{ "id" : "b", "min" : 0, "max" : 1}]}},{"blocktype" : "reg",
 "value" : [{"cible" : "b",
 "regs" : [{ "id": "h2",
 "formulaString" : "",
 "formulaTree" : {"type" : "ATOME","var" : "h",
 "seuil" : 2}},{ "id": "r2",
 "formulaString" : "",
 "formulaTree" : {"type" : "ATOME","var" : "r",
 "seuil" : 1}}]},{"cible" : "r",
 "regs" : [{ "id": "j1",
 "formulaString" : "",
 "formulaTree" : {"type" : "EXPR","operateur" : "!","expr1" : {"type" : "ATOME","var" : "j",
 "seuil" : 1},"expr2" : "null"}},{ "id": "b1",
 "formulaString" : "",
 "formulaTree" : {"type" : "ATOME","var" : "b",
 "seuil" : 1}}]},{"cible" : "j",
 "regs" : [{ "id": "h1",
 "formulaString" : "",
 "formulaTree" : {"type" : "ATOME","var" : "h",
 "seuil" : 1}},{ "id": "r1",
 "formulaString" : "",
 "formulaTree" : {"type" : "EXPR","operateur" : "!","expr1" : {"type" : "ATOME","var" : "r",
 "seuil" : 1},"expr2" : "null"}}]}]},{"blocktype" : "para",
 "value" : []},{"blocktype" : "ctl",
 "value" : [{"type" : "TEMP_CTL","operateur" : "AF","expr1" : {"type" : "TEMP_CTL","operateur" : "AG","expr1" : {"type" : "OP_BOOL","operateur" : "&","expr1" : {"type" : "OP_BOOL","operateur" : "&","expr1" : {"type" : "ATOME","operateur" : "=","expr1" : "j","expr2" : "0"},"expr2" : {"type" : "ATOME","operateur" : "=","expr1" : "r","expr2" : "0"}},"expr2" : {"type" : "ATOME","operateur" : "=","expr1" : "b","expr2" : "0"}},"expr2" : "null"},"expr2" : "null"}]}]}