
VAR

ClockGenes = 0 1 ;
PerCry = 0 1 ;
Light = 0 2 (self reg) ;

REG

PC_on_G [(!((PerCry>=1)&(!(Light>=1))))]=>
 ClockGenes
 ;
ClockGenes_To_PerCry [(ClockGenes>=1)]=>
 PerCry
 ;
Light_To_Light [(!(Light>=1))]=>
 Light
 ;

PARA

# Parameters for ClockGenes

# domains
K_ClockGenes = 0;   #  {[0]} [1]
K_ClockGenes:PC_on_G = 1;   # [0] {[1]} 

# Snoussi useful constraints for ClockGenes:
K_ClockGenes <= K_ClockGenes:PC_on_G; 

# Parameters for PerCry

# domains
K_PerCry = 0;   #  {[0]} [1]
K_PerCry:ClockGenes_To_PerCry = 1;   # [0] {[1]} 

# Snoussi useful constraints for PerCry:
K_PerCry <= K_PerCry:ClockGenes_To_PerCry; 

# Parameters for Light

# domains
K_Light = 0;   #  {(0)} [1][2]
K_Light:Light_To_Light = 1..2;   # [0] {(1~2)} 

# Snoussi useful constraints for Light:
K_Light <= K_Light:Light_To_Light; 

NO CTL FORMULA
NO FAIRCTL FORMULA

HOARE
Result of Hoare triple is:
    [Triple 1, set of formulas: [(K_Light:Light_To_Light>0), (K_ClockGenes<1), (K_PerCry:ClockGenes_To_PerCry>0), (K_Light<1), (K_ClockGenes:PC_on_G>0), (K_PerCry<1)]]
    Hoare result is a conjunction of conditions on K, it has been used to reduced parameters bounds
    35 models have been removed

======================
# Number of effective parameterizations : 1
======================



###########     No CTL formula     ###########
# Total number of models: 36
# Number of models removed using Hoare: 35
# Number of selected models: 1
# Computation time: 0ms
Models have been written in examples/circadian/circadianHoare.out
###############################################
OK Model #2
   K_ClockGenes : 0
   K_ClockGenes:PC_on_G : 1
   K_PerCry : 0
   K_PerCry:ClockGenes_To_PerCry : 1
   K_Light : 0
   K_Light:Light_To_Light : 1
