{"result":[{"blocktype" : "env_var", "value" : {"count" : 0 , "data" : []}},{"blocktype": "var" , "value" : {"count" : 3 , "data" : [{ "id" : "ClockGenes", "min" : 0, "max" : 1},{ "id" : "PerCry", "min" : 0, "max" : 1},{ "id" : "Light", "min" : 0, "max" : 2}]}},{"blocktype" : "reg",
 "value" : [{"cible" : "ClockGenes",
 "regs" : [{ "id": "PC_on_G",
 "formulaString" : "",
 "formulaTree" : {"type" : "EXPR","operateur" : "!","expr1" : {"type" : "EXPR","operateur" : "&","expr1" : {"type" : "ATOME","var" : "PerCry",
 "seuil" : 1},"expr2" : {"type" : "EXPR","operateur" : "!","expr1" : {"type" : "ATOME","var" : "Light",
 "seuil" : 1},"expr2" : "null"}},"expr2" : "null"}}]},{"cible" : "Light",
 "regs" : [{ "id": "Light_To_Light",
 "formulaString" : "",
 "formulaTree" : {"type" : "EXPR","operateur" : "!","expr1" : {"type" : "ATOME","var" : "Light",
 "seuil" : 1},"expr2" : "null"}}]},{"cible" : "PerCry",
 "regs" : [{ "id": "ClockGenes_To_PerCry",
 "formulaString" : "",
 "formulaTree" : {"type" : "ATOME","var" : "ClockGenes",
 "seuil" : 1}}]}]},{"blocktype" : "para",
 "value" : []},{"blocktype" : "ctl",
 "value" : [{"type" : "IMPLICATION","operateur" : "->","expr1" : {"type" : "OP_BOOL","operateur" : "&","expr1" : {"type" : "ATOME","operateur" : "=","expr1" : "PerCry","expr2" : "1"},"expr2" : {"type" : "ATOME","operateur" : "=","expr1" : "Light","expr2" : "1"}},"expr2" : {"type" : "TEMP_CTL","operateur" : "AF","expr1" : {"type" : "TEMP_CTL","operateur" : "AG","expr1" : {"type" : "ATOME","operateur" : "=","expr1" : "PerCry","expr2" : "1"},"expr2" : "null"},"expr2" : "null"}},{"type" : "IMPLICATION","operateur" : "->","expr1" : {"type" : "TEMP_CTL","operateur" : "AF","expr1" : {"type" : "TEMP_CTL","operateur" : "AG","expr1" : {"type" : "ATOME","operateur" : "=","expr1" : "Light","expr2" : "1"},"expr2" : "null"},"expr2" : "null"},"expr2" : {"type" : "TEMP_CTL","operateur" : "AF","expr1" : {"type" : "TEMP_CTL","operateur" : "AG","expr1" : {"type" : "ATOME","operateur" : "=","expr1" : "ClockGenes","expr2" : "1"},"expr2" : "null"},"expr2" : "null"}}]}]}