n°;valid;K_atp;K_atp:glyc1;K_atp:nobla;K_atp:nobnla;K_atp:phoxa;K_atp:glyc1:phoxa;K_atp:glyc1:glyc2;K_atp:nobla:nobnla;K_atp:nobla:phoxa;K_atp:glyc1:nobla;K_atp:nobnla:phoxa;K_atp:glyc1:nobnla;K_atp:glyc1:glyc2:nobla;K_atp:glyc1:nobla:nobnla;K_atp:nobla:nobnla:phoxa;K_atp:glyc1:nobla:phoxa;K_atp:glyc1:glyc2:nobnla;K_atp:glyc1:nobnla:phoxa;K_atp:glyc1:glyc2:phoxa;K_atp:glyc1:nobla:nobnla:phoxa;K_atp:glyc1:glyc2:nobla:phoxa;K_atp:glyc1:glyc2:nobla:nobnla;K_atp:glyc1:glyc2:nobnla:phoxa;K_atp:glyc1:glyc2:nobla:nobnla:phoxa;K_atp:glyc2;K_atp:glyc2:phoxa;K_atp:glyc2:nobnla;K_atp:glyc2:nobla;K_atp:glyc2:nobnla:phoxa;K_atp:glyc2:nobla:phoxa;K_atp:glyc2:nobla:nobnla;K_atp:glyc2:nobla:nobnla:phoxa;K_oxyg;K_oxyg:phoxo;K_oxyg:oxygi;K_oxyg:oxygi:phoxo;K_glyc;K_glyc:cof;K_glyc:nopfk;K_glyc:cof:nopfk;K_glyc:glc2;K_glyc:glc1;K_glyc:cof:glc2;K_glyc:cof:glc1;K_glyc:glc2:nopfk;K_glyc:glc1:nopfk;K_glyc:glc1:glc2;K_glyc:cof:glc2:nopfk;K_glyc:cof:glc1:nopfk;K_glyc:cof:glc1:glc2;K_glyc:glc1:glc2:nopfk;K_glyc:cof:glc1:glc2:nopfk;K_bnl;K_bnl:aas;K_bnl:ppp;K_bnl:aas:ppp;K_bl;K_bl:nobox;K_bl:ls:nobox;K_bl:ls;K_dnc;K_dnc:krebsd;K_dnc:inaa1;K_dnc:inaa2;K_dnc:inaa1:krebsd;K_dnc:inaa2:krebsd;K_dnc:inaa1:inaa2;K_dnc:inaa1:inaa2:krebsd;K_ferm;K_ferm:ep;K_nadh;K_nadh:fermn;K_nadh:gpdh;K_nadh:krebsn;K_nadh:noaas;K_nadh:phoxn;K_nadh:fermn:gpdh;K_nadh:gpdh:krebsn;K_nadh:gpdh:noaas;K_nadh:gpdh:phoxn;K_nadh:fermn:krebsn;K_nadh:krebsn:noaas;K_nadh:krebsn:phoxn;K_nadh:fermn:noaas;K_nadh:noaas:phoxn;K_nadh:fermn:phoxn;K_nadh:fermn:krebsn:phoxn;K_nadh:gpdh:noaas:phoxn;K_nadh:fermn:gpdh:noaas;K_nadh:fermn:noaas:phoxn;K_nadh:fermn:gpdh:phoxn;K_nadh:krebsn:noaas:phoxn;K_nadh:fermn:gpdh:krebsn;K_nadh:fermn:krebsn:noaas;K_nadh:gpdh:krebsn:noaas;K_nadh:gpdh:krebsn:phoxn;K_nadh:fermn:gpdh:krebsn:phoxn;K_nadh:fermn:gpdh:krebsn:noaas;K_nadh:fermn:gpdh:noaas:phoxn;K_nadh:gpdh:krebsn:noaas:phoxn;K_nadh:fermn:krebsn:noaas:phoxn;K_nadh:fermn:gpdh:krebsn:noaas:phoxn;K_nadh:got1;K_nadh:got1:gpdh;K_nadh:got1:noaas;K_nadh:got1:krebsn;K_nadh:got1:phoxn;K_nadh:fermn:got1;K_nadh:got1:gpdh:noaas;K_nadh:got1:gpdh:krebsn;K_nadh:got1:gpdh:phoxn;K_nadh:fermn:got1:gpdh;K_nadh:got1:krebsn:noaas;K_nadh:got1:noaas:phoxn;K_nadh:fermn:got1:noaas;K_nadh:got1:krebsn:phoxn;K_nadh:fermn:got1:krebsn;K_nadh:fermn:got1:phoxn;K_nadh:got1:gpdh:krebsn:noaas;K_nadh:got1:gpdh:noaas:phoxn;K_nadh:fermn:got1:gpdh:noaas;K_nadh:got1:gpdh:krebsn:phoxn;K_nadh:fermn:got1:gpdh:krebsn;K_nadh:fermn:got1:gpdh:phoxn;K_nadh:got1:krebsn:noaas:phoxn;K_nadh:fermn:got1:krebsn:noaas;K_nadh:fermn:got1:noaas:phoxn;K_nadh:fermn:got1:krebsn:phoxn;K_nadh:got1:gpdh:krebsn:noaas:phoxn;K_nadh:fermn:got1:gpdh:krebsn:noaas;K_nadh:fermn:got1:gpdh:noaas:phoxn;K_nadh:fermn:got1:gpdh:krebsn:phoxn;K_nadh:fermn:got1:krebsn:noaas:phoxn;K_nadh:fermn:got1:gpdh:krebsn:noaas:phoxn;K_krebs;K_krebs:box;K_krebs:pnh;K_krebs:pnh:sat;K_krebs:sat;K_krebs:box:pnh;K_krebs:box:sat;K_krebs:box:pnh:sat;K_phox;K_phox:pc;K_ros:metr;K_ros:metr:noROS;K_ros;K_ros:glcr;K_ros:noROS;K_ros:act;K_ros:glcr:noROS;K_ros:act:glcr;K_ros:glcr:metr;K_ros:act:noROS;K_ros:act:metr;K_ros:act:glcr:noROS;K_ros:glcr:metr:noROS;K_ros:act:glcr:metr;K_ros:act:metr:noROS;K_ros:act:glcr:metr:noROS;K_foxo;K_foxo:akt;Error explanation
;;0..2;0..2;0..2;0..2;0..2;0..2;0..2;0..2;0..2;0..2;0..2;0..2;0..2;0..2;0..2;0..2;0..2;0..2;0..2;0..2;0..2;0..2;0..2;0..2;0..2;0..2;0..2;0..2;0..2;0..2;0..2;0..2;0..1;0..1;0..1;0..1;0..2;0..2;0..2;0..2;0..2;0..2;0..2;0..2;0..2;0..2;0..2;0..2;0..2;0..2;0..2;0..2;0..1;0..1;0..1;0..1;0..1;0..1;0..1;0..1;0..2;0..2;0..2;0..2;0..2;0..2;0..2;0..2;0..1;0..1;0..2;0..2;0..2;0..2;0..2;0..2;0..2;0..2;0..2;0..2;0..2;0..2;0..2;0..2;0..2;0..2;0..2;0..2;0..2;0..2;0..2;0..2;0..2;0..2;0..2;0..2;0..2;0..2;0..2;0..2;0..2;0..2;0..2;0..2;0..2;0..2;0..2;0..2;0..2;0..2;0..2;0..2;0..2;0..2;0..2;0..2;0..2;0..2;0..2;0..2;0..2;0..2;0..2;0..2;0..2;0..2;0..2;0..2;0..2;0..2;0..2;0..2;0..2;0..2;0..2;0..2;0..2;0..2;0..2;0..2;0..2;0..2;0..1;0..1;0..3;0..3;0..3;0..3;0..3;0..3;0..3;0..3;0..3;0..3;0..3;0..3;0..3;0..3;0..3;0..3;0..1;0..1;
1;OK;0;0;0;0;1;1;1;0;2;2;1;0;2;2;2;2;1;1;1;2;2;2;1;2;-;-;-;-;-;-;-;-;0;0;-;-;0;0;0;0;-;-;-;-;-;-;-;-;-;-;-;-;0;1;1;1;0;0;1;-;0;0;-;-;-;-;-;-;0;1;0;0;0;0;0;0;0;0;0;0;0;0;0;0;0;0;0;0;0;0;2;2;0;0;0;0;2;2;2;2;2;2;-;-;-;-;-;-;-;-;-;-;-;-;-;-;-;-;-;-;-;-;-;-;-;-;-;-;-;-;-;-;-;-;0;0;1;2;-;-;-;-;0;1;0;0;-;-;-;-;-;-;-;-;-;-;-;-;-;-;0;0;
2;OK;0;0;0;0;1;1;1;0;2;2;1;0;2;2;2;2;1;1;1;2;2;2;1;2;-;-;-;-;-;-;-;-;0;0;-;-;0;0;0;0;-;-;-;-;-;-;-;-;-;-;-;-;0;1;1;1;0;0;1;-;0;0;-;-;-;-;-;-;0;1;0;0;0;0;0;0;0;0;0;0;0;0;0;0;0;0;0;0;0;0;2;2;0;0;0;0;2;2;2;2;2;2;-;-;-;-;-;-;-;-;-;-;-;-;-;-;-;-;-;-;-;-;-;-;-;-;-;-;-;-;-;-;-;-;0;0;1;2;-;-;-;-;0;1;0;1;-;-;-;-;-;-;-;-;-;-;-;-;-;-;0;0;
3;OK;0;0;0;0;1;1;1;0;2;2;1;0;2;2;2;2;1;1;1;2;2;2;1;2;-;-;-;-;-;-;-;-;0;0;-;-;0;0;0;0;-;-;-;-;-;-;-;-;-;-;-;-;0;1;1;1;0;0;1;-;0;0;-;-;-;-;-;-;0;1;0;0;0;0;0;0;0;0;0;0;0;0;0;0;0;0;0;0;0;0;2;2;0;0;0;0;2;2;2;2;2;2;-;-;-;-;-;-;-;-;-;-;-;-;-;-;-;-;-;-;-;-;-;-;-;-;-;-;-;-;-;-;-;-;0;0;1;2;-;-;-;-;0;1;0;2;-;-;-;-;-;-;-;-;-;-;-;-;-;-;0;0;
4;OK;0;0;0;0;1;1;1;0;2;2;1;0;2;2;2;2;1;1;1;2;2;2;1;2;-;-;-;-;-;-;-;-;0;0;-;-;0;0;0;0;-;-;-;-;-;-;-;-;-;-;-;-;0;1;1;1;0;0;1;-;0;0;-;-;-;-;-;-;0;1;0;0;0;0;0;0;0;0;0;0;0;0;0;0;0;0;0;0;0;0;2;2;0;0;0;0;2;2;2;2;2;2;-;-;-;-;-;-;-;-;-;-;-;-;-;-;-;-;-;-;-;-;-;-;-;-;-;-;-;-;-;-;-;-;0;0;1;2;-;-;-;-;0;1;0;3;-;-;-;-;-;-;-;-;-;-;-;-;-;-;0;0;
5;OK;0;0;0;0;1;1;1;0;2;2;1;0;2;2;2;2;1;1;1;2;2;2;1;2;-;-;-;-;-;-;-;-;0;0;-;-;0;0;0;0;-;-;-;-;-;-;-;-;-;-;-;-;0;1;1;1;0;0;1;-;0;0;-;-;-;-;-;-;0;1;0;0;0;0;0;0;0;0;0;0;0;0;0;0;0;0;0;0;0;0;2;2;0;0;0;0;2;2;2;2;2;2;-;-;-;-;-;-;-;-;-;-;-;-;-;-;-;-;-;-;-;-;-;-;-;-;-;-;-;-;-;-;-;-;0;0;1;2;-;-;-;-;0;1;0;0;-;-;-;-;-;-;-;-;-;-;-;-;-;-;0;1;
6;OK;0;0;0;0;1;1;1;0;2;2;1;0;2;2;2;2;1;1;1;2;2;2;1;2;-;-;-;-;-;-;-;-;0;0;-;-;0;0;0;0;-;-;-;-;-;-;-;-;-;-;-;-;0;1;1;1;0;0;1;-;0;0;-;-;-;-;-;-;0;1;0;0;0;0;0;0;0;0;0;0;0;0;0;0;0;0;0;0;0;0;2;2;0;0;0;0;2;2;2;2;2;2;-;-;-;-;-;-;-;-;-;-;-;-;-;-;-;-;-;-;-;-;-;-;-;-;-;-;-;-;-;-;-;-;0;0;1;2;-;-;-;-;0;1;0;1;-;-;-;-;-;-;-;-;-;-;-;-;-;-;0;1;
7;OK;0;0;0;0;1;1;1;0;2;2;1;0;2;2;2;2;1;1;1;2;2;2;1;2;-;-;-;-;-;-;-;-;0;0;-;-;0;0;0;0;-;-;-;-;-;-;-;-;-;-;-;-;0;1;1;1;0;0;1;-;0;0;-;-;-;-;-;-;0;1;0;0;0;0;0;0;0;0;0;0;0;0;0;0;0;0;0;0;0;0;2;2;0;0;0;0;2;2;2;2;2;2;-;-;-;-;-;-;-;-;-;-;-;-;-;-;-;-;-;-;-;-;-;-;-;-;-;-;-;-;-;-;-;-;0;0;1;2;-;-;-;-;0;1;0;2;-;-;-;-;-;-;-;-;-;-;-;-;-;-;0;1;
8;OK;0;0;0;0;1;1;1;0;2;2;1;0;2;2;2;2;1;1;1;2;2;2;1;2;-;-;-;-;-;-;-;-;0;0;-;-;0;0;0;0;-;-;-;-;-;-;-;-;-;-;-;-;0;1;1;1;0;0;1;-;0;0;-;-;-;-;-;-;0;1;0;0;0;0;0;0;0;0;0;0;0;0;0;0;0;0;0;0;0;0;2;2;0;0;0;0;2;2;2;2;2;2;-;-;-;-;-;-;-;-;-;-;-;-;-;-;-;-;-;-;-;-;-;-;-;-;-;-;-;-;-;-;-;-;0;0;1;2;-;-;-;-;0;1;0;3;-;-;-;-;-;-;-;-;-;-;-;-;-;-;0;1;
9;KO;0;0;0;0;1;1;1;0;2;2;1;0;2;2;2;2;1;1;1;2;2;2;1;2;-;-;-;-;-;-;-;-;0;0;-;-;0;0;0;0;-;-;-;-;-;-;-;-;-;-;-;-;0;1;1;1;0;0;1;-;0;0;-;-;-;-;-;-;0;1;0;0;0;0;0;0;0;0;0;0;0;0;0;0;0;0;0;0;0;0;2;2;0;0;0;0;2;2;2;2;2;2;-;-;-;-;-;-;-;-;-;-;-;-;-;-;-;-;-;-;-;-;-;-;-;-;-;-;-;-;-;-;-;-;0;0;1;2;-;-;-;-;0;1;1;1;-;-;-;-;-;-;-;-;-;-;-;-;-;-;0;0;"[AF(AG((ros=0)))]"
10;KO;0;0;0;0;1;1;1;0;2;2;1;0;2;2;2;2;1;1;1;2;2;2;1;2;-;-;-;-;-;-;-;-;0;0;-;-;0;0;0;0;-;-;-;-;-;-;-;-;-;-;-;-;0;1;1;1;0;0;1;-;0;0;-;-;-;-;-;-;0;1;0;0;0;0;0;0;0;0;0;0;0;0;0;0;0;0;0;0;0;0;2;2;0;0;0;0;2;2;2;2;2;2;-;-;-;-;-;-;-;-;-;-;-;-;-;-;-;-;-;-;-;-;-;-;-;-;-;-;-;-;-;-;-;-;0;0;1;2;-;-;-;-;0;1;1;2;-;-;-;-;-;-;-;-;-;-;-;-;-;-;0;0;"[AF(AG((ros=0)))]"
11;KO;0;0;0;0;1;1;1;0;2;2;1;0;2;2;2;2;1;1;1;2;2;2;1;2;-;-;-;-;-;-;-;-;0;0;-;-;0;0;0;0;-;-;-;-;-;-;-;-;-;-;-;-;0;1;1;1;0;0;1;-;0;0;-;-;-;-;-;-;0;1;0;0;0;0;0;0;0;0;0;0;0;0;0;0;0;0;0;0;0;0;2;2;0;0;0;0;2;2;2;2;2;2;-;-;-;-;-;-;-;-;-;-;-;-;-;-;-;-;-;-;-;-;-;-;-;-;-;-;-;-;-;-;-;-;0;0;1;2;-;-;-;-;0;1;2;2;-;-;-;-;-;-;-;-;-;-;-;-;-;-;0;0;"[AF(AG((ros=0)))]"
12;KO;0;0;0;0;1;1;1;0;2;2;1;0;2;2;2;2;1;1;1;2;2;2;1;2;-;-;-;-;-;-;-;-;0;0;-;-;0;0;0;0;-;-;-;-;-;-;-;-;-;-;-;-;0;1;1;1;0;0;1;-;0;0;-;-;-;-;-;-;0;1;0;0;0;0;0;0;0;0;0;0;0;0;0;0;0;0;0;0;0;0;2;2;0;0;0;0;2;2;2;2;2;2;-;-;-;-;-;-;-;-;-;-;-;-;-;-;-;-;-;-;-;-;-;-;-;-;-;-;-;-;-;-;-;-;0;0;1;2;-;-;-;-;0;1;1;3;-;-;-;-;-;-;-;-;-;-;-;-;-;-;0;0;"[AF(AG((ros=0)))]"
13;KO;0;0;0;0;1;1;1;0;2;2;1;0;2;2;2;2;1;1;1;2;2;2;1;2;-;-;-;-;-;-;-;-;0;0;-;-;0;0;0;0;-;-;-;-;-;-;-;-;-;-;-;-;0;1;1;1;0;0;1;-;0;0;-;-;-;-;-;-;0;1;0;0;0;0;0;0;0;0;0;0;0;0;0;0;0;0;0;0;0;0;2;2;0;0;0;0;2;2;2;2;2;2;-;-;-;-;-;-;-;-;-;-;-;-;-;-;-;-;-;-;-;-;-;-;-;-;-;-;-;-;-;-;-;-;0;0;1;2;-;-;-;-;0;1;2;3;-;-;-;-;-;-;-;-;-;-;-;-;-;-;0;0;"[AF(AG((ros=0)))]"
14;KO;0;0;0;0;1;1;1;0;2;2;1;0;2;2;2;2;1;1;1;2;2;2;1;2;-;-;-;-;-;-;-;-;0;0;-;-;0;0;0;0;-;-;-;-;-;-;-;-;-;-;-;-;0;1;1;1;0;0;1;-;0;0;-;-;-;-;-;-;0;1;0;0;0;0;0;0;0;0;0;0;0;0;0;0;0;0;0;0;0;0;2;2;0;0;0;0;2;2;2;2;2;2;-;-;-;-;-;-;-;-;-;-;-;-;-;-;-;-;-;-;-;-;-;-;-;-;-;-;-;-;-;-;-;-;0;0;1;2;-;-;-;-;0;1;3;3;-;-;-;-;-;-;-;-;-;-;-;-;-;-;0;0;"[AF(AG((ros=0)))]"
15;KO;0;0;0;0;1;1;1;0;2;2;1;0;2;2;2;2;1;1;1;2;2;2;1;2;-;-;-;-;-;-;-;-;0;0;-;-;0;0;0;0;-;-;-;-;-;-;-;-;-;-;-;-;0;1;1;1;0;0;1;-;0;0;-;-;-;-;-;-;0;1;0;0;0;0;0;0;0;0;0;0;0;0;0;0;0;0;0;0;0;0;2;2;0;0;0;0;2;2;2;2;2;2;-;-;-;-;-;-;-;-;-;-;-;-;-;-;-;-;-;-;-;-;-;-;-;-;-;-;-;-;-;-;-;-;0;0;1;2;-;-;-;-;0;1;1;1;-;-;-;-;-;-;-;-;-;-;-;-;-;-;0;1;"[AF(AG((ros=0)))]"
16;KO;0;0;0;0;1;1;1;0;2;2;1;0;2;2;2;2;1;1;1;2;2;2;1;2;-;-;-;-;-;-;-;-;0;0;-;-;0;0;0;0;-;-;-;-;-;-;-;-;-;-;-;-;0;1;1;1;0;0;1;-;0;0;-;-;-;-;-;-;0;1;0;0;0;0;0;0;0;0;0;0;0;0;0;0;0;0;0;0;0;0;2;2;0;0;0;0;2;2;2;2;2;2;-;-;-;-;-;-;-;-;-;-;-;-;-;-;-;-;-;-;-;-;-;-;-;-;-;-;-;-;-;-;-;-;0;0;1;2;-;-;-;-;0;1;1;2;-;-;-;-;-;-;-;-;-;-;-;-;-;-;0;1;"[AF(AG((ros=0)))]"
17;KO;0;0;0;0;1;1;1;0;2;2;1;0;2;2;2;2;1;1;1;2;2;2;1;2;-;-;-;-;-;-;-;-;0;0;-;-;0;0;0;0;-;-;-;-;-;-;-;-;-;-;-;-;0;1;1;1;0;0;1;-;0;0;-;-;-;-;-;-;0;1;0;0;0;0;0;0;0;0;0;0;0;0;0;0;0;0;0;0;0;0;2;2;0;0;0;0;2;2;2;2;2;2;-;-;-;-;-;-;-;-;-;-;-;-;-;-;-;-;-;-;-;-;-;-;-;-;-;-;-;-;-;-;-;-;0;0;1;2;-;-;-;-;0;1;2;2;-;-;-;-;-;-;-;-;-;-;-;-;-;-;0;1;"[AF(AG((ros=0)))]"
18;KO;0;0;0;0;1;1;1;0;2;2;1;0;2;2;2;2;1;1;1;2;2;2;1;2;-;-;-;-;-;-;-;-;0;0;-;-;0;0;0;0;-;-;-;-;-;-;-;-;-;-;-;-;0;1;1;1;0;0;1;-;0;0;-;-;-;-;-;-;0;1;0;0;0;0;0;0;0;0;0;0;0;0;0;0;0;0;0;0;0;0;2;2;0;0;0;0;2;2;2;2;2;2;-;-;-;-;-;-;-;-;-;-;-;-;-;-;-;-;-;-;-;-;-;-;-;-;-;-;-;-;-;-;-;-;0;0;1;2;-;-;-;-;0;1;1;3;-;-;-;-;-;-;-;-;-;-;-;-;-;-;0;1;"[AF(AG((ros=0)))]"
19;KO;0;0;0;0;1;1;1;0;2;2;1;0;2;2;2;2;1;1;1;2;2;2;1;2;-;-;-;-;-;-;-;-;0;0;-;-;0;0;0;0;-;-;-;-;-;-;-;-;-;-;-;-;0;1;1;1;0;0;1;-;0;0;-;-;-;-;-;-;0;1;0;0;0;0;0;0;0;0;0;0;0;0;0;0;0;0;0;0;0;0;2;2;0;0;0;0;2;2;2;2;2;2;-;-;-;-;-;-;-;-;-;-;-;-;-;-;-;-;-;-;-;-;-;-;-;-;-;-;-;-;-;-;-;-;0;0;1;2;-;-;-;-;0;1;2;3;-;-;-;-;-;-;-;-;-;-;-;-;-;-;0;1;"[AF(AG((ros=0)))]"
20;KO;0;0;0;0;1;1;1;0;2;2;1;0;2;2;2;2;1;1;1;2;2;2;1;2;-;-;-;-;-;-;-;-;0;0;-;-;0;0;0;0;-;-;-;-;-;-;-;-;-;-;-;-;0;1;1;1;0;0;1;-;0;0;-;-;-;-;-;-;0;1;0;0;0;0;0;0;0;0;0;0;0;0;0;0;0;0;0;0;0;0;2;2;0;0;0;0;2;2;2;2;2;2;-;-;-;-;-;-;-;-;-;-;-;-;-;-;-;-;-;-;-;-;-;-;-;-;-;-;-;-;-;-;-;-;0;0;1;2;-;-;-;-;0;1;3;3;-;-;-;-;-;-;-;-;-;-;-;-;-;-;0;1;"[AF(AG((ros=0)))]"
21;KO;0;0;0;0;1;1;1;0;2;2;1;0;2;2;2;2;1;1;1;2;2;2;1;2;-;-;-;-;-;-;-;-;0;0;-;-;0;0;0;0;-;-;-;-;-;-;-;-;-;-;-;-;0;1;1;1;0;0;1;-;0;0;-;-;-;-;-;-;0;1;0;0;0;0;0;0;0;0;0;0;0;0;0;0;0;0;0;0;0;0;2;2;0;0;0;0;2;2;2;2;2;2;-;-;-;-;-;-;-;-;-;-;-;-;-;-;-;-;-;-;-;-;-;-;-;-;-;-;-;-;-;-;-;-;0;0;1;2;-;-;-;-;0;1;0;0;-;-;-;-;-;-;-;-;-;-;-;-;-;-;1;1;"[AF(AG((foxo=0)))]"
22;KO;0;0;0;0;1;1;1;0;2;2;1;0;2;2;2;2;1;1;1;2;2;2;1;2;-;-;-;-;-;-;-;-;0;0;-;-;0;0;0;0;-;-;-;-;-;-;-;-;-;-;-;-;0;1;1;1;0;0;1;-;0;0;-;-;-;-;-;-;0;1;0;0;0;0;0;0;0;0;0;0;0;0;0;0;0;0;0;0;0;0;2;2;0;0;0;0;2;2;2;2;2;2;-;-;-;-;-;-;-;-;-;-;-;-;-;-;-;-;-;-;-;-;-;-;-;-;-;-;-;-;-;-;-;-;0;0;1;2;-;-;-;-;0;1;0;1;-;-;-;-;-;-;-;-;-;-;-;-;-;-;1;1;"[AF(AG((foxo=0)))]"
23;KO;0;0;0;0;1;1;1;0;2;2;1;0;2;2;2;2;1;1;1;2;2;2;1;2;-;-;-;-;-;-;-;-;0;0;-;-;0;0;0;0;-;-;-;-;-;-;-;-;-;-;-;-;0;1;1;1;0;0;1;-;0;0;-;-;-;-;-;-;0;1;0;0;0;0;0;0;0;0;0;0;0;0;0;0;0;0;0;0;0;0;2;2;0;0;0;0;2;2;2;2;2;2;-;-;-;-;-;-;-;-;-;-;-;-;-;-;-;-;-;-;-;-;-;-;-;-;-;-;-;-;-;-;-;-;0;0;1;2;-;-;-;-;0;1;1;1;-;-;-;-;-;-;-;-;-;-;-;-;-;-;1;1;"[AF(AG((ros=0))), AF(AG((foxo=0)))]"
24;KO;0;0;0;0;1;1;1;0;2;2;1;0;2;2;2;2;1;1;1;2;2;2;1;2;-;-;-;-;-;-;-;-;0;0;-;-;0;0;0;0;-;-;-;-;-;-;-;-;-;-;-;-;0;1;1;1;0;0;1;-;0;0;-;-;-;-;-;-;0;1;0;0;0;0;0;0;0;0;0;0;0;0;0;0;0;0;0;0;0;0;2;2;0;0;0;0;2;2;2;2;2;2;-;-;-;-;-;-;-;-;-;-;-;-;-;-;-;-;-;-;-;-;-;-;-;-;-;-;-;-;-;-;-;-;0;0;1;2;-;-;-;-;0;1;0;2;-;-;-;-;-;-;-;-;-;-;-;-;-;-;1;1;"[AF(AG((foxo=0)))]"
25;KO;0;0;0;0;1;1;1;0;2;2;1;0;2;2;2;2;1;1;1;2;2;2;1;2;-;-;-;-;-;-;-;-;0;0;-;-;0;0;0;0;-;-;-;-;-;-;-;-;-;-;-;-;0;1;1;1;0;0;1;-;0;0;-;-;-;-;-;-;0;1;0;0;0;0;0;0;0;0;0;0;0;0;0;0;0;0;0;0;0;0;2;2;0;0;0;0;2;2;2;2;2;2;-;-;-;-;-;-;-;-;-;-;-;-;-;-;-;-;-;-;-;-;-;-;-;-;-;-;-;-;-;-;-;-;0;0;1;2;-;-;-;-;0;1;1;2;-;-;-;-;-;-;-;-;-;-;-;-;-;-;1;1;"[AF(AG((ros=0))), AF(AG((foxo=0)))]"
26;KO;0;0;0;0;1;1;1;0;2;2;1;0;2;2;2;2;1;1;1;2;2;2;1;2;-;-;-;-;-;-;-;-;0;0;-;-;0;0;0;0;-;-;-;-;-;-;-;-;-;-;-;-;0;1;1;1;0;0;1;-;0;0;-;-;-;-;-;-;0;1;0;0;0;0;0;0;0;0;0;0;0;0;0;0;0;0;0;0;0;0;2;2;0;0;0;0;2;2;2;2;2;2;-;-;-;-;-;-;-;-;-;-;-;-;-;-;-;-;-;-;-;-;-;-;-;-;-;-;-;-;-;-;-;-;0;0;1;2;-;-;-;-;0;1;2;2;-;-;-;-;-;-;-;-;-;-;-;-;-;-;1;1;"[AF(AG((ros=0))), AF(AG((foxo=0)))]"
27;KO;0;0;0;0;1;1;1;0;2;2;1;0;2;2;2;2;1;1;1;2;2;2;1;2;-;-;-;-;-;-;-;-;0;0;-;-;0;0;0;0;-;-;-;-;-;-;-;-;-;-;-;-;0;1;1;1;0;0;1;-;0;0;-;-;-;-;-;-;0;1;0;0;0;0;0;0;0;0;0;0;0;0;0;0;0;0;0;0;0;0;2;2;0;0;0;0;2;2;2;2;2;2;-;-;-;-;-;-;-;-;-;-;-;-;-;-;-;-;-;-;-;-;-;-;-;-;-;-;-;-;-;-;-;-;0;0;1;2;-;-;-;-;0;1;0;3;-;-;-;-;-;-;-;-;-;-;-;-;-;-;1;1;"[AF(AG((foxo=0)))]"
28;KO;0;0;0;0;1;1;1;0;2;2;1;0;2;2;2;2;1;1;1;2;2;2;1;2;-;-;-;-;-;-;-;-;0;0;-;-;0;0;0;0;-;-;-;-;-;-;-;-;-;-;-;-;0;1;1;1;0;0;1;-;0;0;-;-;-;-;-;-;0;1;0;0;0;0;0;0;0;0;0;0;0;0;0;0;0;0;0;0;0;0;2;2;0;0;0;0;2;2;2;2;2;2;-;-;-;-;-;-;-;-;-;-;-;-;-;-;-;-;-;-;-;-;-;-;-;-;-;-;-;-;-;-;-;-;0;0;1;2;-;-;-;-;0;1;1;3;-;-;-;-;-;-;-;-;-;-;-;-;-;-;1;1;"[AF(AG((ros=0))), AF(AG((foxo=0)))]"
29;KO;0;0;0;0;1;1;1;0;2;2;1;0;2;2;2;2;1;1;1;2;2;2;1;2;-;-;-;-;-;-;-;-;0;0;-;-;0;0;0;0;-;-;-;-;-;-;-;-;-;-;-;-;0;1;1;1;0;0;1;-;0;0;-;-;-;-;-;-;0;1;0;0;0;0;0;0;0;0;0;0;0;0;0;0;0;0;0;0;0;0;2;2;0;0;0;0;2;2;2;2;2;2;-;-;-;-;-;-;-;-;-;-;-;-;-;-;-;-;-;-;-;-;-;-;-;-;-;-;-;-;-;-;-;-;0;0;1;2;-;-;-;-;0;1;2;3;-;-;-;-;-;-;-;-;-;-;-;-;-;-;1;1;"[AF(AG((ros=0))), AF(AG((foxo=0)))]"
30;KO;0;0;0;0;1;1;1;0;2;2;1;0;2;2;2;2;1;1;1;2;2;2;1;2;-;-;-;-;-;-;-;-;0;0;-;-;0;0;0;0;-;-;-;-;-;-;-;-;-;-;-;-;0;1;1;1;0;0;1;-;0;0;-;-;-;-;-;-;0;1;0;0;0;0;0;0;0;0;0;0;0;0;0;0;0;0;0;0;0;0;2;2;0;0;0;0;2;2;2;2;2;2;-;-;-;-;-;-;-;-;-;-;-;-;-;-;-;-;-;-;-;-;-;-;-;-;-;-;-;-;-;-;-;-;0;0;1;2;-;-;-;-;0;1;3;3;-;-;-;-;-;-;-;-;-;-;-;-;-;-;1;1;"[AF(AG((ros=0))), AF(AG((foxo=0)))]"
