n°;valid;K_operon:ca;K_operon:alg:ca;K_operon:ca:free;K_operon:alg:ca:free;K_mucuB;K_mucuB:prod;Error explanation
;;0..2;0..2;0..2;0..2;0..1;0..1;;
1;OK;0;0;2;2;0;0;
2;OK;1;0;2;2;0;0;
3;OK;2;0;2;2;0;0;
4;OK;0;1;2;2;0;0;
5;OK;1;1;2;2;0;0;
6;OK;2;1;2;2;0;0;
7;OK;0;2;2;2;0;0;
8;OK;1;2;2;2;0;0;
9;OK;2;2;2;2;0;0;
10;OK;2;0;0;2;1;0;
11;OK;2;1;0;2;1;0;
12;OK;2;2;0;2;1;0;
13;OK;1;0;2;2;1;0;
14;OK;2;0;2;2;1;0;
15;OK;1;1;2;2;1;0;
16;OK;2;1;2;2;1;0;
17;OK;1;2;2;2;1;0;
18;OK;2;2;2;2;1;0;
19;OK;2;2;1;0;0;1;
20;OK;0;2;2;0;0;1;
21;OK;2;2;2;0;0;1;
22;OK;2;2;1;1;0;1;
23;OK;0;2;2;1;0;1;
24;OK;2;2;2;1;0;1;
25;OK;2;2;1;2;0;1;
26;OK;0;2;2;2;0;1;
27;OK;2;2;2;2;0;1;
28;OK;2;2;0;0;1;1;
29;OK;2;2;1;0;1;1;
30;OK;2;2;2;0;1;1;
31;OK;2;2;0;1;1;1;
32;OK;2;2;1;1;1;1;
33;OK;2;2;2;1;1;1;
34;OK;2;2;0;2;1;1;
35;OK;2;2;1;2;1;1;
36;OK;2;2;2;2;1;1;
37;KO;0;0;0;0;0;0;"[p3]"
38;KO;1;0;0;0;0;0;"[p3]"
39;KO;2;0;0;0;0;0;"[p3]"
40;KO;0;1;0;0;0;0;"[p3]"
41;KO;1;1;0;0;0;0;"[p3]"
42;KO;2;1;0;0;0;0;"[p3]"
43;KO;0;2;0;0;0;0;"[p3]"
44;KO;1;2;0;0;0;0;"[p3]"
45;KO;2;2;0;0;0;0;"[p3]"
46;KO;0;0;1;0;0;0;"[p3]"
47;KO;1;0;1;0;0;0;"[p3]"
48;KO;2;0;1;0;0;0;"[p3]"
49;KO;0;1;1;0;0;0;"[p3]"
50;KO;1;1;1;0;0;0;"[p3]"
51;KO;2;1;1;0;0;0;"[p3]"
52;KO;0;2;1;0;0;0;"[p3]"
53;KO;1;2;1;0;0;0;"[p3]"
54;KO;2;2;1;0;0;0;"[p3]"
55;KO;0;0;2;0;0;0;"[p3]"
56;KO;1;0;2;0;0;0;"[p3]"
57;KO;2;0;2;0;0;0;"[p3]"
58;KO;0;1;2;0;0;0;"[p3]"
59;KO;1;1;2;0;0;0;"[p3]"
60;KO;2;1;2;0;0;0;"[p3]"
61;KO;0;2;2;0;0;0;"[p3]"
62;KO;1;2;2;0;0;0;"[p3]"
63;KO;2;2;2;0;0;0;"[p3]"
64;KO;0;0;0;1;0;0;"[p3]"
65;KO;1;0;0;1;0;0;"[p3]"
66;KO;2;0;0;1;0;0;"[p3]"
67;KO;0;1;0;1;0;0;"[p3]"
68;KO;1;1;0;1;0;0;"[p3]"
69;KO;2;1;0;1;0;0;"[p3]"
70;KO;0;2;0;1;0;0;"[p3]"
71;KO;1;2;0;1;0;0;"[p3]"
72;KO;2;2;0;1;0;0;"[p3]"
73;KO;0;0;1;1;0;0;"[p3]"
74;KO;1;0;1;1;0;0;"[p3]"
75;KO;2;0;1;1;0;0;"[p3]"
76;KO;0;1;1;1;0;0;"[p3]"
77;KO;1;1;1;1;0;0;"[p3]"
78;KO;2;1;1;1;0;0;"[p3]"
79;KO;0;2;1;1;0;0;"[p3]"
80;KO;1;2;1;1;0;0;"[p3]"
81;KO;2;2;1;1;0;0;"[p3]"
82;KO;0;0;2;1;0;0;"[p3]"
83;KO;1;0;2;1;0;0;"[p3]"
84;KO;2;0;2;1;0;0;"[p3]"
85;KO;0;1;2;1;0;0;"[p3]"
86;KO;1;1;2;1;0;0;"[p3]"
87;KO;2;1;2;1;0;0;"[p3]"
88;KO;0;2;2;1;0;0;"[p3]"
89;KO;1;2;2;1;0;0;"[p3]"
90;KO;2;2;2;1;0;0;"[p3]"
91;KO;0;0;0;2;0;0;"[p3]"
92;KO;1;0;0;2;0;0;"[p3]"
93;KO;2;0;0;2;0;0;"[p3]"
94;KO;0;1;0;2;0;0;"[p3]"
95;KO;1;1;0;2;0;0;"[p3]"
96;KO;2;1;0;2;0;0;"[p3]"
97;KO;0;2;0;2;0;0;"[p3]"
98;KO;1;2;0;2;0;0;"[p3]"
99;KO;2;2;0;2;0;0;"[p3]"
100;KO;0;0;1;2;0;0;"[p3]"
101;KO;1;0;1;2;0;0;"[p3]"
102;KO;2;0;1;2;0;0;"[p3]"
103;KO;0;1;1;2;0;0;"[p3]"
104;KO;1;1;1;2;0;0;"[p3]"
105;KO;2;1;1;2;0;0;"[p3]"
106;KO;0;2;1;2;0;0;"[p3]"
107;KO;1;2;1;2;0;0;"[p3]"
108;KO;2;2;1;2;0;0;"[p3]"
109;KO;0;0;0;0;1;0;"[p3]"
110;KO;1;0;0;0;1;0;"[p3]"
111;KO;2;0;0;0;1;0;"[p3]"
112;KO;0;1;0;0;1;0;"[p3]"
113;KO;1;1;0;0;1;0;"[p3]"
114;KO;2;1;0;0;1;0;"[p3]"
115;KO;0;2;0;0;1;0;"[p3]"
116;KO;1;2;0;0;1;0;"[p3]"
117;KO;2;2;0;0;1;0;"[p3]"
118;KO;0;0;1;0;1;0;"[p3]"
119;KO;1;0;1;0;1;0;"[p3]"
120;KO;2;0;1;0;1;0;"[p3]"
121;KO;0;1;1;0;1;0;"[p3]"
122;KO;1;1;1;0;1;0;"[p3]"
123;KO;2;1;1;0;1;0;"[p3]"
124;KO;0;2;1;0;1;0;"[p3]"
125;KO;1;2;1;0;1;0;"[p3]"
126;KO;2;2;1;0;1;0;"[p3]"
127;KO;0;0;2;0;1;0;"[p3]"
128;KO;1;0;2;0;1;0;"[p3]"
129;KO;2;0;2;0;1;0;"[p3]"
130;KO;0;1;2;0;1;0;"[p3]"
131;KO;1;1;2;0;1;0;"[p3]"
132;KO;2;1;2;0;1;0;"[p3]"
133;KO;0;2;2;0;1;0;"[p3]"
134;KO;1;2;2;0;1;0;"[p3]"
135;KO;2;2;2;0;1;0;"[p3]"
136;KO;0;0;0;1;1;0;"[p3]"
137;KO;1;0;0;1;1;0;"[p3]"
138;KO;2;0;0;1;1;0;"[p3]"
139;KO;0;1;0;1;1;0;"[p3]"
140;KO;1;1;0;1;1;0;"[p3]"
141;KO;2;1;0;1;1;0;"[p3]"
142;KO;0;2;0;1;1;0;"[p3]"
143;KO;1;2;0;1;1;0;"[p3]"
144;KO;2;2;0;1;1;0;"[p3]"
145;KO;0;0;1;1;1;0;"[p3]"
146;KO;1;0;1;1;1;0;"[p3]"
147;KO;2;0;1;1;1;0;"[p3]"
148;KO;0;1;1;1;1;0;"[p3]"
149;KO;1;1;1;1;1;0;"[p3]"
150;KO;2;1;1;1;1;0;"[p3]"
151;KO;0;2;1;1;1;0;"[p3]"
152;KO;1;2;1;1;1;0;"[p3]"
153;KO;2;2;1;1;1;0;"[p3]"
154;KO;0;0;2;1;1;0;"[p3]"
155;KO;1;0;2;1;1;0;"[p3]"
156;KO;2;0;2;1;1;0;"[p3]"
157;KO;0;1;2;1;1;0;"[p3]"
158;KO;1;1;2;1;1;0;"[p3]"
159;KO;2;1;2;1;1;0;"[p3]"
160;KO;0;2;2;1;1;0;"[p3]"
161;KO;1;2;2;1;1;0;"[p3]"
162;KO;2;2;2;1;1;0;"[p3]"
163;KO;0;0;0;2;1;0;"[p3]"
164;KO;1;0;0;2;1;0;"[p3]"
165;KO;0;1;0;2;1;0;"[p3]"
166;KO;1;1;0;2;1;0;"[p3]"
167;KO;0;2;0;2;1;0;"[p3]"
168;KO;1;2;0;2;1;0;"[p3]"
169;KO;0;0;1;2;1;0;"[p3]"
170;KO;1;0;1;2;1;0;"[p3]"
171;KO;2;0;1;2;1;0;"[p3]"
172;KO;0;1;1;2;1;0;"[p3]"
173;KO;1;1;1;2;1;0;"[p3]"
174;KO;2;1;1;2;1;0;"[p3]"
175;KO;0;2;1;2;1;0;"[p3]"
176;KO;1;2;1;2;1;0;"[p3]"
177;KO;2;2;1;2;1;0;"[p3]"
178;KO;0;0;2;2;1;0;"[p3]"
179;KO;0;1;2;2;1;0;"[p3]"
180;KO;0;2;2;2;1;0;"[p3]"
181;KO;0;0;0;0;0;1;"[p3]"
182;KO;1;0;0;0;0;1;"[p3]"
183;KO;2;0;0;0;0;1;"[p3]"
184;KO;0;1;0;0;0;1;"[p3]"
185;KO;1;1;0;0;0;1;"[p3]"
186;KO;2;1;0;0;0;1;"[p3]"
187;KO;0;2;0;0;0;1;"[p3]"
188;KO;1;2;0;0;0;1;"[p3]"
189;KO;2;2;0;0;0;1;"[p3]"
190;KO;0;0;1;0;0;1;"[p3]"
191;KO;1;0;1;0;0;1;"[p3]"
192;KO;2;0;1;0;0;1;"[p3]"
193;KO;0;1;1;0;0;1;"[p3]"
194;KO;1;1;1;0;0;1;"[p3]"
195;KO;2;1;1;0;0;1;"[p3]"
196;KO;0;2;1;0;0;1;"[p3]"
197;KO;1;2;1;0;0;1;"[p3]"
198;KO;0;0;2;0;0;1;"[p3]"
199;KO;1;0;2;0;0;1;"[p3]"
200;KO;2;0;2;0;0;1;"[p3]"
201;KO;0;1;2;0;0;1;"[p3]"
202;KO;1;1;2;0;0;1;"[p3]"
203;KO;2;1;2;0;0;1;"[p3]"
204;KO;1;2;2;0;0;1;"[p3]"
205;KO;0;0;0;1;0;1;"[p3]"
206;KO;1;0;0;1;0;1;"[p3]"
207;KO;2;0;0;1;0;1;"[p3]"
208;KO;0;1;0;1;0;1;"[p3]"
209;KO;1;1;0;1;0;1;"[p3]"
210;KO;2;1;0;1;0;1;"[p3]"
211;KO;0;2;0;1;0;1;"[p3]"
212;KO;1;2;0;1;0;1;"[p3]"
213;KO;2;2;0;1;0;1;"[p3]"
214;KO;0;0;1;1;0;1;"[p3]"
215;KO;1;0;1;1;0;1;"[p3]"
216;KO;2;0;1;1;0;1;"[p3]"
217;KO;0;1;1;1;0;1;"[p3]"
218;KO;1;1;1;1;0;1;"[p3]"
219;KO;2;1;1;1;0;1;"[p3]"
220;KO;0;2;1;1;0;1;"[p3]"
221;KO;1;2;1;1;0;1;"[p3]"
222;KO;0;0;2;1;0;1;"[p3]"
223;KO;1;0;2;1;0;1;"[p3]"
224;KO;2;0;2;1;0;1;"[p3]"
225;KO;0;1;2;1;0;1;"[p3]"
226;KO;1;1;2;1;0;1;"[p3]"
227;KO;2;1;2;1;0;1;"[p3]"
228;KO;1;2;2;1;0;1;"[p3]"
229;KO;0;0;0;2;0;1;"[p3]"
230;KO;1;0;0;2;0;1;"[p3]"
231;KO;2;0;0;2;0;1;"[p3]"
232;KO;0;1;0;2;0;1;"[p3]"
233;KO;1;1;0;2;0;1;"[p3]"
234;KO;2;1;0;2;0;1;"[p3]"
235;KO;0;2;0;2;0;1;"[p3]"
236;KO;1;2;0;2;0;1;"[p3]"
237;KO;2;2;0;2;0;1;"[p3]"
238;KO;0;0;1;2;0;1;"[p3]"
239;KO;1;0;1;2;0;1;"[p3]"
240;KO;2;0;1;2;0;1;"[p3]"
241;KO;0;1;1;2;0;1;"[p3]"
242;KO;1;1;1;2;0;1;"[p3]"
243;KO;2;1;1;2;0;1;"[p3]"
244;KO;0;2;1;2;0;1;"[p3]"
245;KO;1;2;1;2;0;1;"[p3]"
246;KO;0;0;2;2;0;1;"[p3]"
247;KO;1;0;2;2;0;1;"[p3]"
248;KO;2;0;2;2;0;1;"[p3]"
249;KO;0;1;2;2;0;1;"[p3]"
250;KO;1;1;2;2;0;1;"[p3]"
251;KO;2;1;2;2;0;1;"[p3]"
252;KO;1;2;2;2;0;1;"[p3]"
253;KO;0;0;0;0;1;1;"[p3]"
254;KO;1;0;0;0;1;1;"[p3]"
255;KO;2;0;0;0;1;1;"[p3]"
256;KO;0;1;0;0;1;1;"[p3]"
257;KO;1;1;0;0;1;1;"[p3]"
258;KO;2;1;0;0;1;1;"[p3]"
259;KO;0;2;0;0;1;1;"[p3]"
260;KO;1;2;0;0;1;1;"[p3]"
261;KO;0;0;1;0;1;1;"[p3]"
262;KO;1;0;1;0;1;1;"[p3]"
263;KO;2;0;1;0;1;1;"[p3]"
264;KO;0;1;1;0;1;1;"[p3]"
265;KO;1;1;1;0;1;1;"[p3]"
266;KO;2;1;1;0;1;1;"[p3]"
267;KO;0;2;1;0;1;1;"[p3]"
268;KO;1;2;1;0;1;1;"[p3]"
269;KO;0;0;2;0;1;1;"[p3]"
270;KO;1;0;2;0;1;1;"[p3]"
271;KO;2;0;2;0;1;1;"[p3]"
272;KO;0;1;2;0;1;1;"[p3]"
273;KO;1;1;2;0;1;1;"[p3]"
274;KO;2;1;2;0;1;1;"[p3]"
275;KO;0;2;2;0;1;1;"[p3]"
276;KO;1;2;2;0;1;1;"[p3]"
277;KO;0;0;0;1;1;1;"[p3]"
278;KO;1;0;0;1;1;1;"[p3]"
279;KO;2;0;0;1;1;1;"[p3]"
280;KO;0;1;0;1;1;1;"[p3]"
281;KO;1;1;0;1;1;1;"[p3]"
282;KO;2;1;0;1;1;1;"[p3]"
283;KO;0;2;0;1;1;1;"[p3]"
284;KO;1;2;0;1;1;1;"[p3]"
285;KO;0;0;1;1;1;1;"[p3]"
286;KO;1;0;1;1;1;1;"[p3]"
287;KO;2;0;1;1;1;1;"[p3]"
288;KO;0;1;1;1;1;1;"[p3]"
289;KO;1;1;1;1;1;1;"[p3]"
290;KO;2;1;1;1;1;1;"[p3]"
291;KO;0;2;1;1;1;1;"[p3]"
292;KO;1;2;1;1;1;1;"[p3]"
293;KO;0;0;2;1;1;1;"[p3]"
294;KO;1;0;2;1;1;1;"[p3]"
295;KO;2;0;2;1;1;1;"[p3]"
296;KO;0;1;2;1;1;1;"[p3]"
297;KO;1;1;2;1;1;1;"[p3]"
298;KO;2;1;2;1;1;1;"[p3]"
299;KO;0;2;2;1;1;1;"[p3]"
300;KO;1;2;2;1;1;1;"[p3]"
301;KO;0;0;0;2;1;1;"[p3]"
302;KO;1;0;0;2;1;1;"[p3]"
303;KO;2;0;0;2;1;1;"[p3]"
304;KO;0;1;0;2;1;1;"[p3]"
305;KO;1;1;0;2;1;1;"[p3]"
306;KO;2;1;0;2;1;1;"[p3]"
307;KO;0;2;0;2;1;1;"[p3]"
308;KO;1;2;0;2;1;1;"[p3]"
309;KO;0;0;1;2;1;1;"[p3]"
310;KO;1;0;1;2;1;1;"[p3]"
311;KO;2;0;1;2;1;1;"[p3]"
312;KO;0;1;1;2;1;1;"[p3]"
313;KO;1;1;1;2;1;1;"[p3]"
314;KO;2;1;1;2;1;1;"[p3]"
315;KO;0;2;1;2;1;1;"[p3]"
316;KO;1;2;1;2;1;1;"[p3]"
317;KO;0;0;2;2;1;1;"[p3]"
318;KO;1;0;2;2;1;1;"[p3]"
319;KO;2;0;2;2;1;1;"[p3]"
320;KO;0;1;2;2;1;1;"[p3]"
321;KO;1;1;2;2;1;1;"[p3]"
322;KO;2;1;2;2;1;1;"[p3]"
323;KO;0;2;2;2;1;1;"[p3]"
324;KO;1;2;2;2;1;1;"[p3]"
